110.02.05 00:46 B C:\AppServ\www\ckeditor\skins\v2\dialog.css --> www.bouzan.net /ckeditor/skins/v2 dialog.css
110.02.05 00:46 B C:\AppServ\www\ckeditor\skins\v2\editor.css --> www.bouzan.net /ckeditor/skins/v2 editor.css
110.02.05 00:46 B C:\AppServ\www\ckeditor\skins\v2\icons.png --> www.bouzan.net /ckeditor/skins/v2 icons.png
110.02.05 00:46 B C:\AppServ\www\ckeditor\skins\v2\skin.js --> www.bouzan.net /ckeditor/skins/v2 skin.js
110.02.05 00:46 B C:\AppServ\www\ckeditor\skins\v2\templates.css --> www.bouzan.net /ckeditor/skins/v2 templates.css
