<?xml version="1.0" standalone="no"?>
<!DOCTYPE svg PUBLIC "-//W3C//DTD SVG 1.1//EN" "http://www.w3.org/Graphics/SVG/1.1/DTD/svg11.dtd" >
<svg xmlns="http://www.w3.org/2000/svg">
<metadata>
This is a custom SVG webfont generated by Font Squirrel.
Copyright   : Copyright c 2011 by LatinoType Limitada infolatinotypecom  with Reserved Font Names Sofia
Designer    : Paula Nazal and Daniel Hernndez
Foundry     : Paula Nazal Daniel Hernndez
Foundry URL : wwwlatinotypecom
</metadata>
<defs>
<font id="SofiaRegular" horiz-adv-x="1705" >
<font-face units-per-em="2048" ascent="1638" descent="-410" />
<missing-glyph horiz-adv-x="724" />
<glyph unicode=" "  horiz-adv-x="724" />
<glyph unicode="&#x09;" horiz-adv-x="724" />
<glyph unicode="&#xa0;" horiz-adv-x="724" />
<glyph unicode="!" horiz-adv-x="419" d="M88 114.5q0 51.5 35 87.5t86 36t87 -36t36 -87.5t-36 -86t-87 -34.5t-86 34.5t-35 86zM98 1366q-2 55 39 88t82 33q29 0 55.5 -10.5t38.5 -19.5l13 -9l-39 -965q0 -33 -27 -53t-55 -20l-66 18z" />
<glyph unicode="&#x22;" horiz-adv-x="716" d="M98 1454q10 29 68 29q96 0 96 -125l2 -373q-10 -29 -67 -29q-96 0 -97 125zM428 1454q10 29 68 29q96 0 96 -125l2 -373q-10 -29 -68 -29q-96 0 -96 125z" />
<glyph unicode="#" d="M72 391q0 14 5 25.5t9 15.5l4 4h217l96 395h-258q-74 0 -73 60q0 14 5 25.5t9 15.5l4 4h338l70 281q14 55 67 55q30 0 49 -35l-73 -301l293 2l69 279q14 55 68 55q30 0 49 -35l-74 -299h166q35 0 54.5 -17.5t19.5 -43.5q0 -14 -5 -25.5t-10 -15.5l-4 -5h-247l-97 -395 l289 2q35 0 54.5 -17.5t19.5 -43.5q0 -14 -5 -25.5t-10 -15.5l-4 -4h-368l-70 -285q-16 -53 -65 -53l-52 31l74 307h-293l-69 -285q-16 -53 -66 -53l-51 31l74 307h-136q-74 0 -73 59zM418 436h295l96 395h-295z" />
<glyph unicode="$" horiz-adv-x="1214" d="M4 326q0 84 33 132t88 48q35 0 59.5 -9.5t31.5 -18.5l7 -9q-18 -51 -18 -125q0 -139 113.5 -243.5t297.5 -104.5q133 0 229.5 93t96.5 224q0 98 -46 168t-118.5 109t-161 69.5t-176.5 62.5t-160.5 76t-118.5 121.5t-46 188.5q0 170 113.5 275.5t299.5 125.5v340 q6 29 64 29q92 0 92 -125v-242q188 -16 301 -111t113 -204q0 -82 -32 -122t-83 -40q-35 0 -60.5 10.5t-32.5 20.5l-7 10q20 27 20 103q0 117 -98 183t-223 66q-135 0 -211 -69.5t-76 -171.5q0 -98 46 -165t120 -103.5t163 -65.5t178 -62.5t162.5 -82t119.5 -136.5t46 -213 q0 -197 -128 -310.5t-318 -135.5v-311q-6 -29 -63 -29q-92 0 -93 125v213q-227 16 -375.5 132t-148.5 284z" />
<glyph unicode="%" horiz-adv-x="1918" d="M68 1274q0 168 93 274.5t242.5 106.5t243.5 -107.5t92 -273.5q-2 -174 -93 -276.5t-242.5 -102.5t-243.5 103.5t-92 275.5zM229 1276q0 -119 45 -193.5t129 -74.5t129.5 73.5t45.5 194.5q0 111 -49.5 183.5t-127.5 72.5q-76 0 -124 -73t-48 -183zM451 20l729 1536 q47 100 133 101q23 0 37 -13.5t18 -26.5l4 -13l-721 -1516q-31 -66 -63.5 -91.5t-81.5 -25.5q-45 1 -55 49zM1044 356q0 168 93.5 274.5t243 106.5t243.5 -107.5t92 -273.5q-2 -174 -93 -276.5t-242.5 -102.5t-244 103.5t-92.5 275.5zM1206 358q0 -119 45 -193.5t129 -74.5 t129 74t45 194q0 111 -49 183.5t-127 72.5q-76 0 -124 -72.5t-48 -183.5z" />
<glyph unicode="&#x26;" horiz-adv-x="1693" d="M2 299q0 90 25.5 160.5t77 121t100.5 83t125 69.5q-117 222 -117 404q0 63 17.5 121.5t56.5 110.5t110.5 84t169.5 32q289 0 293 -324q0 -90 -23.5 -162.5t-72.5 -127t-96 -91.5t-119 -80q139 -244 358 -411q10 59 11 147l-19 125q8 4 20.5 8t44 4t56 -14t45 -60 t20.5 -122q0 -92 -32 -180q115 -57 211 -58q33 0 60.5 4t38.5 8l11 3q8 -2 18.5 -6.5t29 -24t18.5 -47.5q0 -43 -45 -78t-140 -35q-129 0 -288 88q-150 -160 -412 -160q-244 0 -398.5 113t-154.5 295zM174 279q0 -117 95.5 -207t269.5 -90q227 0 313 143q-266 190 -453 487 q-109 -68 -167 -144t-58 -189zM408 1141q0 -152 81 -328q111 61 171.5 143t60.5 213q0 100 -37 164t-119 64q-78 0 -117.5 -73t-39.5 -183z" />
<glyph unicode="'" horiz-adv-x="337" d="M94 1454q10 29 68 29q96 0 96 -125l2 -373q-10 -29 -67 -29q-96 0 -97 125z" />
<glyph unicode="(" horiz-adv-x="784" d="M16 594q0 217 57.5 413.5t147.5 326.5t196.5 206t207.5 76q37 0 59.5 -21.5t22.5 -44.5l-13 -30q-145 0 -260 -146.5t-171 -354.5t-56 -425q0 -213 56 -417t171 -346t260 -142q12 -2 13 -31q0 -23 -22.5 -44.5t-59.5 -21.5q-100 0 -207 75t-197 202t-147.5 319.5 t-57.5 405.5z" />
<glyph unicode=")" horiz-adv-x="729" d="M16 -342l13 31q145 0 259.5 142t171 346t56.5 417q0 217 -56.5 425t-171 354.5t-259.5 146.5q-12 2 -13 30q0 23 22.5 44.5t59.5 21.5q100 0 207 -76t197 -206t147.5 -326.5t57.5 -413.5q0 -213 -57.5 -405.5t-147.5 -319.5t-196.5 -202t-207.5 -75q-37 0 -59.5 21.5 t-22.5 44.5z" />
<glyph unicode="*" horiz-adv-x="1181" d="M8 1458q0 27 13.5 45.5t26.5 23.5l13 5l312 -88l-115 225q-27 53 0 97t66 44q23 0 39 -6t21 -12l5 -6l88 -309l131 209q37 57 105 57q31 0 51 -23.5t26 -46.5l5 -22l-234 -236l215 -10q125 -6 125 -96q0 -55 -43 -84l-313 80l108 -195q29 -51 6.5 -101.5t-73.5 -50.5 l-51 9l-93 303l-129 -213q-35 -51 -84 -51q-74 0 -92 89l-2 13l225 227l-251 17q-53 2 -77 35.5t-24 70.5z" />
<glyph unicode="+" horiz-adv-x="995" d="M53 539q0 92 125 92h195v295q6 29 63 28q92 0 92 -125v-198l293 2q29 -6 29 -64q0 -92 -125 -92l-197 -2l2 -289q-6 -29 -63 -28q-92 0 -92 125l-2 192h-291q-29 6 -29 64z" />
<glyph unicode="," horiz-adv-x="370" d="M72 92q0 41 27.5 69.5t68.5 28.5h2q74 0 119 -51t45 -151q0 -94 -45 -156.5t-109 -62.5q-27 0 -46 11t-19 27l14 33q57 0 90 38t33 102q0 29 -6 53q-27 -37 -78 -37q-41 0 -68.5 28.5t-27.5 67.5z" />
<glyph unicode="-" horiz-adv-x="901" d="M53 539q0 92 125 92l643 2q29 -6 29 -64q0 -92 -125 -92l-643 -2q-29 6 -29 64z" />
<glyph unicode="." horiz-adv-x="245" d="M27 92q0 41 27.5 69.5t68.5 28.5t69.5 -28.5t28.5 -69.5t-28.5 -68.5t-69.5 -27.5t-68.5 28.5t-27.5 67.5z" />
<glyph unicode="/" horiz-adv-x="772" d="M-8 20l729 1536q47 100 133 101q23 0 37 -13.5t18 -26.5l4 -13l-720 -1516q-31 -66 -64 -91.5t-82 -25.5q-45 1 -55 49z" />
<glyph unicode="0" horiz-adv-x="1771" d="M209 721q0 328 181 538.5t470 210.5q291 0 473.5 -211.5t177.5 -537.5q-2 -340 -180 -544t-471 -204q-295 0 -473 204t-178 544zM397 723q0 -295 121 -481.5t342 -186.5t342 185.5t121 482.5q0 281 -130 463t-337 182q-203 0 -331 -182t-128 -463z" />
<glyph unicode="1" horiz-adv-x="974" d="M-25 1155l2 19l443 284q61 41 108 41q51 0 66 -65v-1336h274q35 0 54.5 -17.5t19.5 -43.5q0 -14 -4 -25.5t-9 -15.5l-5 -4h-826q-74 0 -73 59q0 14 4 25.5t9 15.5l5 4h358v1221l-305 -193q-47 -31 -71 -30q-49 0 -50 61z" />
<glyph unicode="2" d="M156 176q0 86 61.5 134t183.5 48q43 0 94.5 -21.5t84 -41t100.5 -64.5q178 172 303 384t125 378q0 205 -105.5 296t-254.5 91q-135 0 -244 -91t-109 -242q0 -20 3 -39t6 -28l4 -9q-12 -25 -62 -25q-37 0 -67.5 31t-30.5 82q0 180 136 301t361 121q246 0 398.5 -116 t152.5 -372q0 -186 -169 -441t-345 -388q156 -96 285 -96q98 0 165.5 33.5t95.5 81.5t41 96.5t11 81.5l-2 34q13 23 54 23q61 0 61 -142q0 -156 -132 -250t-296 -94q-166 0 -377 156q-139 -90 -313 -90q-96 0 -157.5 44t-61.5 134zM268 178q0 -86 105 -86q115 0 221 68 q-139 106 -198.5 106t-93.5 -24.5t-34 -63.5z" />
<glyph unicode="3" horiz-adv-x="1218" d="M16 141q0 66 33 66l41 -12q0 -106 137.5 -176t307.5 -70q176 0 290.5 96t114.5 277q0 193 -131 285.5t-336 92.5q-47 0 -47 41q0 23 15.5 34t31.5 11q203 0 307.5 74t104.5 201q0 145 -86 220t-226 75q-160 0 -260 -60.5t-100 -181.5q0 -20 3 -38.5t6 -27.5l3 -10 q-12 -25 -61 -24q-37 0 -67.5 30.5t-30.5 81.5q0 137 131 233.5t374 96.5q231 0 366.5 -101.5t135.5 -293.5q0 -74 -30.5 -133.5t-69.5 -92t-89 -56t-78 -31t-44 -9.5q306 -83 357 -326q9 -44 9 -91q0 -223 -167.5 -349.5t-425.5 -126.5q-213 0 -366 92.5t-153 202.5z" />
<glyph unicode="4" d="M170 387q0 104 172 154q90 106 128 337.5t38 426.5q0 72 63 71q66 0 66 -73q0 -487 -131 -738h26q94 0 176.5 -19.5t168.5 -49t139 -41.5v807q0 98 37 149t80 51q23 0 39 -5t24 -10t10 -5v-1004q147 10 148 148q0 20 -3 36.5t-8 21.5l-4 5q12 31 64 31q74 0 74 -127 q0 -109 -72 -170t-197 -68v-209h146q35 0 54 -17t19 -44q0 -14 -5 -25.5t-9 -15.5l-4 -4h-551q-74 0 -74 59q0 14 5.5 25.5t9.5 15.5l4 4h219v230q-57 14 -229 81.5t-277 67.5q-27 0 -63 -4q-90 -113 -271 -135q-12 18 -12 43z" />
<glyph unicode="5" horiz-adv-x="1292" d="M37 176q0 66 33 66l41 -13q0 -109 109.5 -177t252.5 -68q176 0 291 96t115 276q0 182 -95.5 276.5t-218.5 94.5q-74 0 -146.5 -17.5t-119.5 -36t-55 -18.5q-27 0 -27 62q0 47 6 179t6 202q0 61 -10 116.5t-20 79.5l-11 25q-6 2 -14 6t-30.5 17.5t-40 28.5t-32 40 t-14.5 51q0 31 13 43q2 0 18 -4q111 -16 160 -63q145 -43 340 -43q125 0 216 17.5t128 36.5t66.5 36.5t45.5 17.5q12 -18 13 -43q0 -88 -131 -153.5t-355 -65.5q-123 0 -235 27q20 -102 20 -181q0 -72 -5 -189.5t-5 -121.5q106 57 219 58q90 0 175 -27t160 -80t121 -149.5 t46 -221.5q0 -223 -168 -349t-426 -126q-178 0 -307 92.5t-129 202.5z" />
<glyph unicode="6" horiz-adv-x="1310" d="M123 575q0 260 141.5 490.5t366.5 364t467 133.5q31 0 48 -14.5t17 -30.5q0 -10 -5 -20.5t-10 -14.5l-5 -4q-8 0 -26.5 1t-29.5 1q-154 0 -324.5 -101.5t-298.5 -272.5t-155 -355q131 158 367 157q109 0 195.5 -30.5t140 -78.5t88.5 -113.5t48 -131.5t13 -135 q0 -209 -139 -339t-379 -130q-227 0 -373.5 155.5t-146.5 468.5zM297 414q0 -152 102.5 -266.5t247.5 -114.5q156 0 251 108.5t95 292.5q0 162 -81 268.5t-230 106.5q-193 0 -289 -107.5t-96 -287.5z" />
<glyph unicode="7" d="M41 1208q0 115 92 190t262 75q131 0 269.5 -49.5t267.5 -111t207 -75.5q203 160 377 160q12 -18 12 -43q0 -92 -124 -166t-230 -74q-180 -215 -286 -530.5t-106 -624.5q0 -29 -3 -47t-13 -44t-38 -39t-71 -13q-137 0 -137 145q0 63 33 198.5t91 305.5t158.5 356.5 t215.5 313.5q-57 18 -174 72.5t-222.5 92t-191.5 37.5q-100 0 -156.5 -53t-56.5 -135q0 -16 3 -30.5t6 -21.5l3 -7q-20 -33 -77 -33q-45 0 -78 39t-33 112z" />
<glyph unicode="8" horiz-adv-x="1286" d="M8 428q0 94 31 172t66.5 119t88 73.5t72 40t39.5 13.5q-18 4 -49 17.5t-79 46t-81 100t-33 157.5q0 193 145.5 294.5t397.5 101.5q248 0 391.5 -101.5t143.5 -294.5q0 -74 -24.5 -134t-56.5 -93t-71 -56.5t-59.5 -29.5t-30.5 -8q20 -6 39.5 -13.5t72 -40t88.5 -73.5 t66.5 -119t30.5 -172q0 -223 -168 -349t-426 -126t-426 126t-168 349zM197 428q0 -188 116.5 -290.5t292.5 -102.5q174 0 288 101.5t114 291.5q0 180 -116 280.5t-290 100.5t-289.5 -100.5t-115.5 -280.5zM252 1167q0 -119 89 -197.5t261 -78.5q170 0 260 78.5t90 197.5 q0 154 -96 234t-252 80q-158 0 -255 -79t-97 -235z" />
<glyph unicode="9" horiz-adv-x="1296" d="M123 -94q0 10 5 20.5t10 14.5l5 4q8 0 26.5 -1t29.5 -1q154 0 324.5 101t298.5 272t155 356q-131 -158 -367 -158q-109 0 -195.5 30.5t-140 79t-88 114t-48 131t-13.5 135.5q0 209 139 339t379 130q227 0 373.5 -156t146.5 -469q0 -260 -141 -490.5t-366.5 -363.5 t-467.5 -133q-31 0 -48 14t-17 31zM293 989q0 -162 81 -268.5t230 -106.5q193 0 289 107.5t96 288.5q0 152 -102.5 266.5t-247.5 114.5q-156 0 -251 -108.5t-95 -293.5z" />
<glyph unicode=":" horiz-adv-x="321" d="M27 92q0 41 27.5 69.5t68.5 28.5t69.5 -28.5t28.5 -69.5t-28.5 -68.5t-69.5 -27.5t-68.5 28.5t-27.5 67.5zM27 827q0 41 27.5 70t68.5 29t69.5 -29t28.5 -70t-28.5 -68.5t-69.5 -27.5t-68.5 27.5t-27.5 68.5z" />
<glyph unicode=";" horiz-adv-x="370" d="M27 92q0 41 29.5 69.5t74.5 28.5q70 -4 114 -55t44 -147q0 -94 -45 -156.5t-109 -62.5q-27 0 -46 11t-19 27l14 33q57 0 90 38t33 102q0 29 -6 53q-27 -37 -78 -37q-41 0 -68.5 28.5t-27.5 67.5zM27 827q0 41 27.5 70t68.5 29t69.5 -29t28.5 -70t-28.5 -68.5t-69.5 -27.5 t-68.5 27.5t-27.5 68.5z" />
<glyph unicode="&#x3c;" horiz-adv-x="841" d="M78 686q2 39 69 96l488 412q8 -4 20.5 -11t34 -34t21.5 -57q0 -27 -64 -80l-387 -330l387 -322q66 -53 66 -81q0 -31 -19.5 -55.5t-39.5 -35.5l-19 -10l-488 404q-72 59 -69 104z" />
<glyph unicode="=" horiz-adv-x="1372" d="M227 526q0 92 125 92h783q29 -6 28 -63q0 -92 -125 -92h-782q-29 6 -29 63zM227 846q0 92 125 92h783q29 -6 28 -64q0 -92 -125 -92h-782q-29 6 -29 64z" />
<glyph unicode="&#x3e;" horiz-adv-x="798" d="M76 279q-1 28 65 81l387 322l-387 330q-63 53 -63 80q2 65 76 102l487 -412q68 -57 70 -96q2 -45 -70 -104l-487 -404q-8 4 -21.5 11.5t-35 33t-21.5 56.5z" />
<glyph unicode="?" d="M238 1151q0 180 136 301t361 121q209 0 349.5 -105.5t140.5 -320.5q0 -94 -28 -170t-73 -126t-99 -94t-108.5 -85t-99.5 -88t-72.5 -116t-27.5 -153q0 -35 -18.5 -54t-45.5 -19q-14 0 -27.5 4t-20.5 9l-7 5v92q0 90 24.5 159t62.5 115t85 85t94 77.5t85 84t62.5 115 t24.5 159.5q0 162 -92 244t-207 82q-135 0 -243.5 -91.5t-108.5 -242.5q0 -20 3 -39t6 -28l3 -9q-12 -25 -61 -25q-37 0 -67.5 31t-30.5 82zM575 71.5q0 34.5 24 58.5t56.5 24t57 -24t24.5 -58q0 -33 -23.5 -56.5t-58.5 -23.5q-33 0 -56.5 22.5t-23.5 57z" />
<glyph unicode="@" horiz-adv-x="1505" d="M117 440q0 182 67.5 328.5t219 241t370.5 94.5q156 0 278 -53.5t194.5 -142.5t110.5 -198.5t38 -230.5q0 -154 -72 -267.5t-201 -113.5q-186 0 -260 150q-55 -115 -205 -115q-272 0 -272 330q0 324 307 323q100 0 154 -45q31 43 86 43q57 0 78 -28v-342q0 -231 137 -232 q76 0 122 87t46 206q0 104 -33 200.5t-95.5 176.5t-170 128t-242.5 48q-283 0 -430 -171t-147 -423q0 -248 181 -398.5t546 -150.5q12 -4 12 -30q0 -29 -109 -29q-317 0 -513.5 166t-196.5 448zM563 463q0 -135 25 -192.5t86 -57.5q51 0 94 42t53 148v166q-6 82 -37.5 110 t-78.5 28q-141 0 -142 -244z" />
<glyph unicode="A" horiz-adv-x="1781" d="M-127 -20q0 127 58.5 224t154.5 152.5t205.5 83t224.5 27.5l299 844q20 59 43 88l-59 198q-4 14 -4 26q1 31 25 54q34 33 73 33l84 -29l362 -1214l269 2q35 0 54 -17.5t19 -43.5q0 -14 -5 -25.5t-9 -15.5l-4 -5h-291l117 -389q4 -14 4 -27q1 -31 -23 -59q-34 -39 -71 -39 l-84 29l-146 485h-522l-102 -278q-53 -141 -153.5 -243.5t-260.5 -102.5q-121 0 -189.5 63.5t-68.5 178.5zM-12 -27q0 -72 40 -110.5t103 -38.5q154 0 266 309l80 227q-225 0 -357 -106.5t-132 -280.5zM686 467h451l-201 774z" />
<glyph unicode="B" horiz-adv-x="1558" d="M-117 334q0 29 17.5 47t38.5 18q12 0 22 -3t13 -6l3 -3q0 -127 84 -221t224 -139v1339q-90 -41 -145.5 -97.5t-55.5 -119.5q0 -20 3 -38.5t6 -28.5l3 -9q-12 -24 -57 -24h-4q-37 0 -67.5 30.5t-30.5 81.5q0 96 96 190.5t252 141.5v78q0 61 30.5 93t69.5 32l84 -29v-139 q10 0 30.5 1t30.5 1q305 0 491.5 -104.5t186.5 -297.5q0 -70 -20.5 -131t-51 -98t-60 -63.5t-50.5 -37.5l-20 -12q12 -2 32.5 -9t71.5 -35.5t90 -68.5t72 -116t33 -168q0 -244 -205 -371t-592 -127q-279 0 -452 135.5t-173 307.5zM477 -6h31q305 0 456.5 96t151.5 299 q0 348 -467 348q-20 0 -34.5 18.5t-14.5 49.5q0 39 49 39q115 0 193 24.5t114.5 68.5t50 89t13.5 102q0 145 -134 222t-345 80q-39 0 -64 -7v-1429z" />
<glyph unicode="C" horiz-adv-x="1349" d="M139 727q0 383 189.5 582.5t496.5 199.5q199 0 311.5 -102t112.5 -227q0 -51 -30.5 -82t-67.5 -31l-72 25q12 31 13 75q0 111 -71 176.5t-206 65.5q-203 0 -345 -193.5t-142 -488.5q0 -344 157.5 -539.5t386.5 -195.5q213 0 346.5 134t133.5 341q10 12 41 12 q20 0 36.5 -18.5t16.5 -46.5q0 -74 -34 -159t-99.5 -170t-181 -140.5t-259.5 -55.5q-332 0 -532.5 214t-200.5 624z" />
<glyph unicode="D" horiz-adv-x="1456" d="M-76 313q0 29 17.5 47.5t38.5 18.5q12 0 22 -3t13 -6l3 -3q0 -113 73 -195t194 -123v1319q-201 -51 -201 -168q0 -20 3 -38.5t6 -27.5l3 -10q-12 -24 -57 -24h-4q-37 0 -67.5 30.5t-30.5 81.5q0 92 93 162t255 103v94q0 61 30.5 93t69.5 32l84 -29v-170q20 2 61 2 q168 0 307.5 -48t247 -145.5t168 -260t60.5 -377.5q0 -373 -220.5 -564.5t-584.5 -191.5q-276 0 -430 121t-154 280zM477 14h31q281 0 448.5 156t167.5 498q0 352 -157.5 541.5t-425.5 189.5q-12 0 -34 -1t-30 -1v-1383z" />
<glyph unicode="E" horiz-adv-x="1083" d="M-80 360q0 100 31 178t73 121t96 72t95 38t74 9q-14 2 -40 8.5t-71 30t-81 59t-63.5 105.5t-27.5 160q0 193 135 294t367 101q217 0 330.5 -91t113.5 -218q0 -51 -30.5 -82t-67.5 -31l-61 25q12 31 12 75q0 111 -84 166.5t-215 55.5q-139 0 -225 -75t-86 -220 q0 -305 411 -305q23 0 42.5 -13.5t19.5 -40.5q0 -53 -62 -53q-219 0 -358 -90t-139 -279q0 -186 119.5 -279t316.5 -93q223 0 381.5 151.5t158.5 395.5q4 14 35 14q39 0 39 -68q0 -109 -39 -213t-112.5 -190t-194.5 -139.5t-268 -53.5q-266 0 -445.5 125t-179.5 350z" />
<glyph unicode="F" horiz-adv-x="1263" d="M264 1386q0 14 5 25.5t10 15.5l4 5l1083 2q35 0 54.5 -17.5t19.5 -44.5q0 -14 -5 -25.5t-10 -15.5l-4 -4h-733v-541h453q35 0 54 -17t19 -44q0 -14 -5 -25.5t-9 -15.5l-4 -4h-508v-432q0 -264 -55 -387t-203 -123q-78 0 -121 65.5t-43 186.5q0 227 238 454v236h-96 q-74 0 -74 59q0 14 5 25.5t9 15.5l4 4h152v543h-166q-74 0 -74 59zM354 -16q0 -166 74 -166q43 0 58.5 85t17.5 328v119q-150 -182 -150 -366z" />
<glyph unicode="G" horiz-adv-x="1208" d="M-72 668q0 383 189.5 582.5t496.5 199.5q221 0 348.5 -102.5t127.5 -227.5q0 -51 -31 -81.5t-68 -30.5l-71 24q12 31 12 76q0 111 -85 176.5t-243 65.5q-203 0 -345 -193.5t-142 -488.5q0 -307 143 -480.5t350 -173.5q168 0 301 62v338q0 61 31 93t70 32l84 -29v-811 q0 -256 -78 -383t-248 -127q-102 0 -159.5 65.5t-57.5 186.5q0 195 105.5 315.5t252.5 149.5v57q-131 -51 -301 -51q-309 0 -495.5 191.5t-186.5 564.5zM647 -565q0 -78 34 -119t89 -41q72 0 106.5 91t34.5 333v100q-117 -27 -190.5 -122t-73.5 -242z" />
<glyph unicode="H" horiz-adv-x="1792" d="M119 -10q0 193 105.5 313.5t252.5 149.5v858q0 61 31 93t70 32l84 -29v-940h600v1024q0 61 30.5 93t69.5 32l84 -29v-1118h182q35 0 54.5 -17.5t19.5 -43.5q0 -14 -5 -25.5t-9 -15.5l-5 -5h-237v-389q0 -61 -31 -93t-69 -32l-84 29v485h-600v-114q0 -256 -78 -383 t-248 -127q-102 0 -159.5 65.5t-57.5 186.5zM213 -16q0 -78 34 -119t89 -41q70 0 104.5 88t36.5 319v115q-117 -27 -190.5 -121t-73.5 -241z" />
<glyph unicode="I" horiz-adv-x="929" d="M114 84.5q5 11.5 9 15.5l4 4l221 2v1221h-166q-73 0 -73 57v2q0 8 1 15.5t3 11.5t5 8t5 6.5t3 4.5l1 2h551q35 0 54.5 -17.5t19.5 -44.5q0 -14 -5.5 -25.5t-9.5 -15.5l-4 -4h-201v-1221h146q35 0 54.5 -17t19.5 -44q0 -14 -5.5 -25.5t-9.5 -15.5l-4 -4h-551q-73 0 -73 57 q0 16 5 27.5z" />
<glyph unicode="J" horiz-adv-x="1003" d="M-41 49q0 133 40 253t107.5 208t123 142.5t114.5 99.5v577h-166q-74 0 -74 60q0 14 5.5 25t9.5 16l4 4l551 2q35 0 54.5 -17.5t19.5 -44.5q0 -14 -5.5 -25.5t-9.5 -15.5l-4 -4h-201v-1087q0 -244 -86 -374t-239 -130q-117 0 -180.5 80t-63.5 231zM47 43q0 -113 45.5 -169 t108.5 -56q143 0 143 430v414q-297 -274 -297 -619z" />
<glyph unicode="K" horiz-adv-x="1548" d="M-182 154q0 157 101 157h1q25 0 43.5 -12t24.5 -24l6 -11q-16 -43 -17 -114q0 -96 44.5 -140.5t111.5 -44.5q147 0 148 262v1188q0 61 30.5 93t69.5 32q25 0 46.5 -7t31.5 -14l10 -8v-1161q0 -215 -81 -342t-255 -127q-152 0 -233.5 75t-81.5 198zM569 621 q0 18 16.5 33.5t32.5 15.5q129 0 233.5 103.5t158 255t53.5 310.5l-12 84q20 31 69 31q53 0 92 -37t39 -119q0 -256 -141 -453.5t-297 -238.5q104 -10 185 -66.5t133.5 -139.5t98.5 -180t92 -192.5t101.5 -174t140 -127t195.5 -48.5l84 21q31 -2 31 -35q0 -70 -139 -70 q-147 0 -260 53.5t-182.5 139.5t-126 188.5t-105.5 206t-103.5 189.5t-138.5 139t-192 53q-57 0 -58 58z" />
<glyph unicode="L" horiz-adv-x="1024" d="M-371 170q0 100 63.5 163.5t172.5 63.5q80 0 153 -37q4 86 5 144v616q-41 -2 -132 -2q-41 0 -66.5 10.5t-32.5 20.5t-7 20q0 12 3 20.5t6 10.5l3 2q207 0 228 2q10 223 87.5 334t235.5 111q100 0 158.5 -59.5t58.5 -151.5q0 -131 -88 -203t-270 -98v-641q0 -139 -31 -250 q8 -8 36 -32t38 -33t36.5 -31.5t40 -31.5t40 -26.5t45 -26t46 -19.5t52.5 -16t55.5 -9.5t61.5 -4.5q203 0 306 95.5t103 275.5q2 12 31 12q10 0 20.5 -7t20.5 -32.5t10 -66.5q0 -170 -145.5 -281.5t-347.5 -111.5q-154 0 -268.5 61.5t-225.5 167.5q-92 -176 -266 -176 q-115 0 -175.5 60.5t-60.5 156.5zM-279 174q0 -135 144 -135q115 0 143 207q-81 67 -143 67h-2q-68 0 -105 -36.5t-37 -102.5zM207 1223q264 49 264 221q0 49 -36 84t-87 35q-66 0 -100.5 -75t-40.5 -265z" />
<glyph unicode="M" horiz-adv-x="2711" d="M72 1108q0 162 98 263.5t262 101.5q270 0 322 -295q45 137 147.5 219t239.5 82q303 -2 391 -332q41 150 146.5 241t250.5 91q213 -2 318.5 -161t105.5 -425v-580q0 -119 48 -190.5t126 -71.5q193 0 193 385q2 12 30 13q10 0 20.5 -7.5t21 -33t10.5 -66.5 q0 -172 -82 -278.5t-217 -106.5q-98 0 -166 35t-103.5 102.5t-51 149.5t-15.5 192v457q0 483 -238 483q-176 0 -271 -155.5t-95 -413.5v-713q0 -61 -31 -93t-70 -32l-84 29v895q0 483 -237 483q-188 0 -278.5 -181t-90.5 -486v-263q0 -254 -81 -402t-255 -148 q-152 0 -233.5 74.5t-81.5 197.5q0 158 102 158q25 0 43.5 -11.5t24.5 -23.5l6 -12q-16 -43 -16 -115q0 -98 44 -141t111 -43q145 0 146 344v792q0 119 -48.5 190.5t-125.5 71.5q-88 0 -138.5 -66.5t-50.5 -236.5q0 -18 4 -36.5t8 -27.5l5 -10q-17 -24 -68 -24h-4 q-33 0 -62.5 30.5t-29.5 100.5z" />
<glyph unicode="N" horiz-adv-x="1929" d="M72 1108q0 162 98 263.5t262 101.5q270 0 322 -295q45 137 147.5 219t239.5 82q213 -2 319.5 -161t106.5 -425v-580q0 -119 48 -190.5t126 -71.5q193 0 192 385q2 12 31 13q10 0 20.5 -7.5t20.5 -33t10 -66.5q0 -172 -82 -278.5t-217 -106.5q-188 0 -263 126t-75 353v457 q0 483 -237 483q-92 0 -161 -46t-107.5 -113.5t-62.5 -161.5t-31 -175t-7 -171v-263q0 -254 -81 -402t-255 -148q-152 0 -233.5 74.5t-81.5 197.5q0 158 102 158q25 0 43.5 -11.5t24.5 -23.5l6 -12q-16 -43 -16 -115q0 -98 44 -141t111 -43q145 0 146 344v792 q0 119 -48.5 190.5t-125.5 71.5q-88 0 -138.5 -66.5t-50.5 -236.5q0 -18 4 -36.5t8 -27.5l5 -10q-17 -24 -68 -24h-4q-33 0 -62.5 30.5t-29.5 100.5z" />
<glyph unicode="O" horiz-adv-x="1665" d="M59 1024q0 61 27 130t86 138.5t139 126t199 91t256 34.5q330 0 527.5 -236.5t197.5 -586.5q0 -375 -181.5 -597t-490.5 -222q-299 0 -474 211t-175 569q0 168 54.5 301t140.5 209t177 115t177 39q37 0 59.5 -21.5t22.5 -44.5l-13 -31q-205 0 -317.5 -153.5t-112.5 -413.5 q0 -307 123 -502.5t338 -195.5q223 0 353.5 206.5t130.5 532.5q0 303 -153 511t-388 208q-256 0 -429 -140.5t-181 -334.5l-1 -2q-1 -2 -4.5 -5.5t-7.5 -5.5t-11 -3t-15 -1q-53 4 -54 74z" />
<glyph unicode="P" horiz-adv-x="1337" d="M-18 1120q0 96 96 190.5t252 141.5v78q0 61 30.5 93t69.5 32l84 -29v-139q10 0 30.5 1t30.5 1q350 -2 545 -133t195 -385q0 -229 -155.5 -365.5t-411.5 -136.5q-117 0 -226 43v-303q0 -240 -59.5 -355.5t-202.5 -115.5q-78 0 -121 65.5t-43 186.5q0 223 234 450v885 q-90 -41 -145.5 -97.5t-55.5 -119.5q0 -20 3 -38.5t6 -28.5l3 -9q-12 -24 -57 -24h-4q-37 0 -67.5 30.5t-30.5 81.5zM184 -16q0 -166 74 -166q43 0 57.5 100t14.5 426q-145 -178 -146 -360zM520 621q104 -45 211 -46q195 0 291 104t96 292q0 199 -140 308.5t-400 109.5 q-33 0 -58 -7v-761z" />
<glyph unicode="Q" horiz-adv-x="1587" d="M-12 713q0 180 57 336.5t147.5 256t197 157t206.5 57.5q37 0 59.5 -21.5t22.5 -44.5l-12 -31q-147 0 -261 -106.5t-170.5 -266t-56.5 -337.5q0 -297 110.5 -489.5t305.5 -207.5q-129 152 -200.5 357t-71.5 405q0 268 128 429t343 161q201 0 343 -180t142 -467 q0 -281 -121 -485.5t-332 -274.5q158 -100 332 -100q203 0 316.5 147t113.5 389q10 12 41 13q20 0 36.5 -18.5t16.5 -47.5q0 -78 -15 -155.5t-54 -156.5t-97.5 -138.5t-150.5 -97.5t-207 -38q-268 0 -481 176q-27 -2 -53 -2q-276 0 -447 195q-188 213 -188 586zM442 793 q0 -205 80 -414t219 -348q162 57 255.5 248.5t93.5 443.5q0 262 -78 401.5t-224 139.5q-152 0 -249 -131.5t-97 -339.5z" />
<glyph unicode="R" horiz-adv-x="1386" d="M-182 154q0 157 101 157h1q25 0 43.5 -12t24.5 -24l6 -11q-16 -43 -17 -114q0 -96 44.5 -140.5t111.5 -44.5q147 0 148 262v930q0 61 30.5 93t69.5 32q25 0 46.5 -7t31.5 -14l10 -8v-903q0 -215 -81 -342t-255 -127q-152 0 -233.5 75t-81.5 198zM-104 1110q0 117 99 216 t243.5 151.5t291.5 52.5q688 0 689 -494q0 -129 -78 -230t-181.5 -148.5t-201.5 -47.5q115 0 204 -51t145 -133t104.5 -181.5t95.5 -199.5t102 -182t142 -133.5t200 -51.5l84 21q31 -2 31 -35q0 -70 -140 -70q-147 0 -259.5 53.5t-182.5 139.5t-126 188.5t-105 206 t-103.5 189.5t-138.5 139t-193 53q-53 0 -53 58q0 25 16.5 37t36.5 12q190 0 301 111.5t111 254.5q0 201 -135 297.5t-363 96.5q-176 0 -332.5 -95.5t-156.5 -236.5q0 -20 3 -39t6 -28l3 -9q-12 -25 -61 -25q-37 0 -67.5 31t-30.5 82z" />
<glyph unicode="S" horiz-adv-x="1214" d="M4 326q0 84 33 132t88 48q35 0 59.5 -9.5t31.5 -18.5l7 -9q-18 -51 -18 -125q0 -139 113.5 -243.5t297.5 -104.5q133 0 229.5 93t96.5 224q0 98 -46 168t-118.5 109t-161 69.5t-176.5 62.5t-160.5 76t-118.5 121.5t-46 188.5q0 190 140 299t363 109q217 0 348.5 -100.5 t131.5 -219.5q0 -82 -32 -122t-83 -40q-35 0 -60.5 10.5t-32.5 20.5l-7 10q20 27 20 103q0 117 -98 183t-223 66q-135 0 -211 -69.5t-76 -171.5q0 -98 46 -165t120 -103.5t163 -65.5t178 -62.5t162.5 -82t119.5 -136.5t46 -213q0 -219 -155.5 -335.5t-374.5 -116.5 q-250 0 -423 119.5t-173 300.5z" />
<glyph unicode="T" horiz-adv-x="1280" d="M-201 1511q0 92 62.5 142.5t183.5 50.5q106 0 247.5 -41t266.5 -89t314.5 -89t379.5 -41q203 0 274.5 43t71.5 127q0 51 -27.5 89t-54.5 50l-28 12q-16 12 -16 37q0 31 47 31q74 0 137 -66.5t63 -152.5q0 -315 -469 -316q-188 0 -348 33v-981q0 -215 -81 -342t-255 -127 q-152 0 -233.5 75t-81.5 198q0 157 101 157h1q25 0 43.5 -12t24.5 -24l6 -11q-16 -43 -16 -114q0 -96 44 -140.5t111 -44.5q141 0 148 262v1149q-135 39 -262 97q-133 -160 -404 -160q-111 0 -180.5 48t-69.5 150zM-88 1513q0 -106 135 -106q219 0 305 109q-219 96 -313 96 q-59 0 -93 -28t-34 -71z" />
<glyph unicode="U" horiz-adv-x="1542" d="M-303 1139q0 162 98.5 263t261.5 101q98 0 165 -34.5t102.5 -102.5t50 -149.5t14.5 -192.5v-518q0 -483 238 -483q170 0 269 161.5t99 413.5v739q0 61 31 93t70 32q25 0 47 -7t33 -14l10 -7v-1112q0 -119 48 -191t126 -72q193 0 192 385q2 12 31 13q10 0 20.5 -7.5 t20.5 -33t10 -66.5q0 -172 -82 -278.5t-217 -106.5q-260 0 -317 271q-43 -143 -146.5 -229.5t-244.5 -86.5q-211 2 -315.5 157.5t-104.5 420.5v649q0 119 -48 190.5t-126 71.5q-88 0 -138.5 -66.5t-50.5 -236.5q0 -18 4.5 -36.5t8.5 -28.5l4 -9q-17 -24 -68 -24h-4 q-33 0 -62.5 30.5t-29.5 100.5z" />
<glyph unicode="V" horiz-adv-x="1660" d="M55 1073q0 188 80 286.5t219 98.5q197 0 266.5 -125t69.5 -436v-375q0 -293 63.5 -415.5t207.5 -122.5q152 0 266 257t114 736q-358 53 -358 305q0 92 58.5 151.5t158.5 59.5q156 0 232.5 -109.5t93.5 -334.5q94 -5 153 -5q12 -2 13 -30q0 -10 -7.5 -20.5t-33 -20.5 t-66.5 -10h-61q-16 -547 -173 -804t-390 -257q-455 0 -455 630v365q-2 262 -47 364.5t-129 102.5q-193 0 -193 -385q-4 -12 -31 -12q-10 0 -20 7t-20.5 32.5t-10.5 66.5zM1077 1288q0 -172 262 -221q-6 193 -39.5 266.5t-99.5 73.5q-51 0 -87 -35t-36 -84z" />
<glyph unicode="W" horiz-adv-x="2334" d="M-147 1073q0 188 79.5 286.5t219.5 98.5q197 0 266 -125t69 -436v-365q0 -293 65 -415.5t208 -122.5q131 0 205.5 111.5t112.5 405.5t38 826q0 59 36 92t75 33q25 0 49 -12t37 -25l12 -12q0 -100 -8 -327.5t-8 -342.5q0 -166 13 -288.5t49 -233t107.5 -169t178.5 -58.5 q147 0 252.5 252t107.5 731q-358 53 -358 305q0 92 58.5 151.5t158.5 59.5q158 0 236.5 -111.5t89.5 -332.5q94 -4 153 -5q12 -2 12 -30q0 -10 -7 -20.5t-32.5 -20.5t-66.5 -10h-61q-6 -281 -51.5 -489t-120 -328.5t-167 -177t-204.5 -56.5q-324 0 -455 364 q-45 -133 -123 -218t-155.5 -115.5t-163.5 -30.5q-457 0 -457 631v354q-2 262 -47 364.5t-129 102.5q-193 0 -193 -385q-4 -12 -30 -12q-10 0 -20.5 7t-20.5 32.5t-10 66.5zM1753 1288q0 -172 262 -221q-6 193 -39.5 266.5t-99.5 73.5q-51 0 -87 -35t-36 -84z" />
<glyph unicode="X" horiz-adv-x="1523" d="M-145 1204q0 143 93 233.5t247 90.5q143 0 260.5 -102.5t175.5 -245.5l129 -322q53 106 97 184t104.5 161t120 134.5t136 85t158.5 33.5q59 0 60 -63q0 -33 -31 -50.5t-66 -17.5q-63 0 -125.5 -37t-107.5 -84t-102.5 -142t-91 -159.5t-93.5 -187.5l123 -303 q53 -133 153.5 -243t213.5 -110q117 0 180 88.5t63 296.5q2 12 31 13q10 0 20.5 -7.5t20.5 -33t10 -66.5q0 -172 -96 -280q-94 -106 -248 -105h-6q-180 2 -317.5 122t-216.5 319l-39 96q-131 -252 -264.5 -392.5t-307.5 -140.5q-55 0 -55 43q0 51 47 51q82 0 155.5 44.5 t140.5 135.5t116 177t114 223l-190 492q-68 172 -139.5 235.5t-157.5 63.5q-78 0 -123 -57.5t-45 -205.5q0 -18 4 -36.5t8 -27.5l4 -9q-18 -25 -71 -25q-33 0 -62.5 31t-29.5 100z" />
<glyph unicode="Y" horiz-adv-x="1372" d="M143 713v624q0 61 31 93t70 32l84 -28v-721q0 -657 319 -658q197 0 289 188.5t92 510.5v583q0 61 31 93t69 32q16 0 31 -3t24 -7t16 -8t9 -7l2 -3v-1751q0 -510 -366 -510q-147 0 -236.5 89t-89.5 242q0 86 38 165t92 134.5t129 106.5t132.5 78.5t116.5 52.5v90 q-141 -158 -379 -158q-256 2 -380 195.5t-124 544.5zM606 -502q0 -115 69.5 -180.5t166 -65.5t140.5 92.5t44 338.5v276q-68 -31 -130 -68.5t-133 -96t-114 -135.5t-43 -161z" />
<glyph unicode="Z" d="M45 188q0 86 61.5 134.5t184.5 48.5q111 0 274 -82q92 117 255 445.5t261 461.5q-70 10 -281.5 108.5t-318.5 98.5q-100 0 -156.5 -53.5t-56.5 -135.5q0 -16 3 -30.5t7 -21.5l3 -7q-20 -33 -78 -33q-45 0 -78 39t-33 113q0 115 92 189.5t262 74.5q127 0 262.5 -54 t257 -114.5t203.5 -71.5q154 158 338 158q12 -18 13 -43q0 -66 -83 -125t-200 -82q-109 -115 -290 -473t-288 -493q241 -127 350 -162q121 -39 234 -39q172 0 244 60.5t72 170.5q0 116 -101 168q-11 5 -10 4q-16 12 -16 47q0 51 67 52q63 0 111.5 -71t48.5 -200 q0 -190 -125 -283t-293 -93q-100 0 -195.5 20t-187.5 65.5t-145.5 76t-141.5 87.5q-143 -133 -307 -133q-96 0 -157.5 44t-61.5 134zM158 190q0 -86 104 -86q117 0 223 97q-131 78 -200 78q-59 0 -93 -25t-34 -64z" />
<glyph unicode="[" horiz-adv-x="747" d="M111 -604v2111q0 63 30.5 103.5t69.5 40.5h346q35 0 54.5 -17.5t19.5 -44.5q0 -14 -4 -25.5t-10 -15.5l-5 -4h-317v-2189h297q18 -12 18 -45q0 -27 -19.5 -44.5t-53.5 -17.5h-326q-100 0 -100 148z" />
<glyph unicode="\" horiz-adv-x="784" d="M-8 1604l5 15q3 9 17.5 23.5t36.5 14.5q86 -1 133 -101l729 -1536q-8 -49 -55 -49q-49 0 -82 26t-63 91z" />
<glyph unicode="]" horiz-adv-x="700" d="M111 1589q0 27 19.5 44.5t53.5 17.5h346q39 0 70 -40t31 -104v-2111q0 -147 -101 -148h-325q-35 0 -54.5 17.5t-19.5 44.5q0 14 4 25.5t9 15.5l6 4h296v2189h-317q-18 12 -18 45z" />
<glyph unicode="^" horiz-adv-x="942" d="M-4 811l381 545q47 68 98 67.5t98 -67.5l381 -545q-2 -8 -7 -21.5t-27.5 -35t-51.5 -21.5q-51 0 -96 66l-297 422l-297 -422q-45 -66 -96 -66q-29 0 -50.5 19.5t-28.5 39.5z" />
<glyph unicode="_" horiz-adv-x="1251" d="M45 49q0 94 125 94h1012q29 -6 28 -63q0 -94 -125 -94h-1011q-29 6 -29 63z" />
<glyph unicode="`" horiz-adv-x="466" d="M-8 1540q2 8 8 21.5t28.5 35t51.5 21.5q59 0 98 -68l223 -397q-2 -8 -7 -21.5t-27.5 -35t-51.5 -21.5q-57 0 -96 66z" />
<glyph unicode="a" horiz-adv-x="1114" d="M0 463q0 238 111.5 350.5t296.5 112.5q141 0 200 -60q27 59 94 60q57 0 78 -29v-588q0 -117 37 -176t101 -59q192 0 192 399q2 12 31 12q37 0 37 -108q0 -174 -75 -278.5t-210 -104.5q-207 0 -275 182q-39 -84 -106.5 -133t-153.5 -49q-358 0 -358 469zM195 463 q0 -162 28.5 -252t65.5 -113.5t94 -23.5q66 0 138.5 76.5t72.5 199.5v281q0 96 -50 155.5t-118 59.5q-57 0 -94 -12.5t-71 -50.5t-50 -116.5t-16 -203.5z" />
<glyph unicode="b" horiz-adv-x="927" d="M2 358v787q0 266 51 386t197 120q78 0 121 -65.5t43 -186.5q0 -219 -228 -447v-108q76 82 193 82q178 0 292.5 -121t114.5 -342t-110.5 -345t-286.5 -124q-174 0 -280.5 100t-106.5 264zM186 422q0 -184 48.5 -266t154.5 -82q115 0 159 88t44 301t-45 298t-170 85 q-104 0 -147.5 -72t-43.5 -246v-106zM186 1051q139 180 140 354q0 166 -74 166q-41 0 -53.5 -83t-12.5 -347v-90z" />
<glyph unicode="c" horiz-adv-x="829" d="M0 442q0 231 114.5 357.5t293.5 126.5q129 0 188 -69t59 -163q0 -51 -30.5 -81.5t-67.5 -30.5l-61 24q12 31 12 76q0 70 -39 117t-94 47q-96 0 -138 -94.5t-42 -319.5q0 -178 78.5 -268t215.5 -90q145 0 241.5 87t96.5 247q2 12 31 12q43 0 43 -66q0 -53 -24.5 -112.5 t-70.5 -116.5t-129 -94t-188 -37q-229 0 -359 115.5t-130 332.5z" />
<glyph unicode="d" horiz-adv-x="1110" d="M0 475q0 236 111.5 343.5t296.5 107.5q119 0 188 -47v278q0 258 52 376t196 118q78 0 121 -65.5t43 -186.5q0 -219 -228 -447v-643q0 -117 40 -176t108 -59q63 0 123.5 81t60.5 257q0 39 -2 61q2 12 31 12q37 0 37 -108q0 -170 -77 -276.5t-198 -106.5q-219 0 -287 192 q-39 -86 -106.5 -138t-151.5 -52q-358 0 -358 479zM195 475q0 -123 14 -206t43 -123t59.5 -55t71.5 -15q72 0 140.5 83t68.5 212v262q0 100 -48 156.5t-118 56.5q-59 0 -95 -10.5t-71 -46t-50 -112.5t-15 -202zM780 1051q139 180 140 354q0 166 -74 166q-43 0 -54.5 -95.5 t-11.5 -424.5z" />
<glyph unicode="e" horiz-adv-x="833" d="M2 442q0 231 114.5 357.5t293.5 126.5q129 0 188 -69t59 -163q0 -154 -128 -255t-326 -101q18 -131 95 -197.5t194 -66.5q135 0 236 95.5t101 279.5q2 12 31 12q43 0 43 -66q0 -152 -105.5 -276.5t-305.5 -124.5q-229 0 -359.5 115.5t-130.5 332.5zM197 414 q127 16 220 79.5t93 188.5q0 80 -35 122t-98 42q-96 0 -138 -94.5t-42 -319.5v-18z" />
<glyph unicode="f" horiz-adv-x="573" d="M0 -653v1798q0 260 55.5 383t196.5 123q203 0 203 -275q0 -315 -213 -479h182q43 0 56.5 -16.5t13.5 -55.5h-310v-1575q-19 -28 -74 -28h-4q-45 0 -75.5 31.5t-30.5 93.5zM184 940q182 133 183 434q0 197 -99 197q-27 0 -41 -17.5t-23 -89t-13.5 -185.5t-6.5 -339z" />
<glyph unicode="g" horiz-adv-x="976" d="M2 463q0 238 111.5 350.5t296.5 112.5q141 0 200 -60q27 59 95 60q57 0 77 -29v-1040q25 2 76 2q55 0 55 -45l-12 -31q-78 0 -119 -2v-107q-2 -211 -97 -330.5t-253 -119.5q-94 0 -166.5 56t-72.5 177q0 156 110.5 248t294.5 129v301q-86 -141 -238 -141q-358 0 -358 469 zM197 463q0 -162 28.5 -252t65.5 -113.5t94 -23.5q76 0 144.5 85t68.5 269v145q0 145 -49 209t-121 64q-57 0 -94 -12.5t-71 -50.5t-50 -116.5t-16 -203.5zM297 -549q0 -72 39 -109.5t92 -37.5q86 0 128 79.5t42 294.5v78q-301 -68 -301 -305z" />
<glyph unicode="h" horiz-adv-x="1081" d="M2 119v1026q0 266 51 386t197 120q78 0 121 -65.5t43 -186.5q0 -219 -228 -447v-180q86 154 273 154q133 0 212 -84t79 -242v-291q0 -117 36.5 -176t100.5 -59q80 0 136 97t56 302q2 12 31 12q37 0 37 -108q0 -158 -81 -270.5t-204 -112.5q-135 0 -220 91t-85 234v291 q0 244 -123 244q-109 0 -178.5 -110.5t-69.5 -370.5v-350q-20 -29 -77 -29q-45 0 -76 31.5t-31 93.5zM186 1051q139 180 140 354q0 166 -74 166q-41 0 -53.5 -94t-12.5 -426z" />
<glyph unicode="i" horiz-adv-x="575" d="M-20 1212.5q0 51.5 34.5 87t86 35.5t87 -35.5t35.5 -87t-35.5 -86t-87 -34.5t-86 34.5t-34.5 86zM6 371v430q0 61 31 93t76 32q57 0 77 -29v-588q0 -117 45.5 -176t123 -59t145 94t67.5 305q4 12 31 12q37 0 37 -108q0 -158 -86 -270.5t-219 -112.5q-166 0 -247 98 t-81 279z" />
<glyph unicode="j" horiz-adv-x="405" d="M-336 -553q0 117 91 190.5t243 104.5v1059q0 61 30.5 93t75.5 32q57 0 78 -29v-1133q25 2 76 3q55 0 55 -46l-12 -30q-80 0 -119 -2v-43q0 -197 -84 -309.5t-225 -112.5q-82 0 -145.5 53t-63.5 170zM-231 -559q0 -137 100 -137q66 0 97.5 55t31.5 203v102 q-229 -55 -229 -223zM-29 1325q0 51 35 87t86 36t87 -36t36 -87t-36 -86t-87 -35t-86 35t-35 86z" />
<glyph unicode="k" horiz-adv-x="1067" d="M2 119v1026q0 266 51 386t197 120q78 0 121 -65.5t43 -186.5q0 -219 -228 -447v-196q92 170 295 170q129 0 208 -67.5t79 -184.5q0 -158 -135 -277q10 -125 75.5 -224t165.5 -99q78 0 133.5 97t55.5 302q2 12 31 12q36 0 36 -102v-6q0 -170 -77.5 -276.5t-202.5 -106.5 q-150 0 -246 91t-121 220q-137 -57 -297 -65v-217q-20 -29 -77 -29q-45 0 -76 31.5t-31 93.5zM186 319q176 18 289 122t113 231q0 86 -37 134t-94 48q-113 0 -192 -121t-79 -414zM186 1051q139 180 140 354q0 166 -74 166q-41 0 -53.5 -94t-12.5 -426z" />
<glyph unicode="l" horiz-adv-x="571" d="M4 371v770q0 264 55.5 387t194.5 123q203 0 203 -275q0 -207 -81 -331.5t-186 -186.5v-549q0 -117 45.5 -176t123 -59t145 94t67.5 305q4 12 31 12q37 0 37 -108q0 -158 -86 -270.5t-219 -112.5q-166 0 -248 98t-82 279zM190 944q178 129 179 430q0 197 -99 197 q-25 0 -38 -16.5t-24 -82t-14.5 -188.5t-3.5 -340z" />
<glyph unicode="m" horiz-adv-x="1566" d="M2 119v778q20 29 78 29q45 0 75.5 -32t30.5 -93q70 125 236 125q195 0 262 -166q70 166 260 166q133 0 212 -84t79 -242v-291q0 -117 37 -176t100 -59q82 0 137.5 91t55.5 308q2 12 30 12q37 0 37 -108q0 -174 -74.5 -278.5t-209.5 -104.5q-152 0 -229 98t-77 279v239 q0 244 -122 244q-209 0 -209 -514v-317q-20 -29 -78 -29q-47 0 -80 32t-33 93v491q0 244 -123 244q-102 0 -156.5 -112.5t-54.5 -397.5v-321q-20 -29 -77 -29q-45 0 -76 31.5t-31 93.5z" />
<glyph unicode="n" horiz-adv-x="1081" d="M0 119v778q20 29 78 29q106 0 106 -154q86 154 273 154q133 0 212 -84t79 -242v-291q0 -117 36.5 -176t100.5 -59q82 0 137 91t55 308q2 12 31 12q37 0 37 -108q0 -174 -75 -278.5t-210 -104.5q-152 0 -228.5 98t-76.5 279v239q0 244 -123 244q-109 0 -178.5 -110.5 t-69.5 -370.5v-350q-20 -29 -78 -29q-45 0 -75.5 31.5t-30.5 93.5z" />
<glyph unicode="o" horiz-adv-x="966" d="M10 463q0 219 111.5 341t296.5 122q178 0 292.5 -121t114.5 -342q0 -195 -107.5 -332t-289.5 -137q-178 0 -298 124t-120 345zM205 463q0 -209 52 -299t171 -90q82 0 126 42t60 136q-133 29 -244.5 121t-162.5 205q-2 -35 -2 -115zM281 739q0 -131 102 -250.5t244 -158.5 q4 78 4 133q0 213 -45 298t-170 85q-55 0 -95 -27.5t-40 -79.5z" />
<glyph unicode="p" horiz-adv-x="1124" d="M0 -653v1550q20 29 78 29q45 0 75.5 -32t30.5 -93v-45q106 170 291 170q166 0 264 -99q215 70 482 70q55 0 55 -45l-12 -31q-248 0 -467 -69q67 -117 67 -301q0 -211 -99 -333t-259 -122q-94 0 -167 65.5t-73 208.5q0 336 334 502q-53 74 -149 74q-94 0 -180.5 -94.5 t-86.5 -282.5v-1219q-19 -28 -74 -28h-4q-45 0 -75.5 31.5t-30.5 93.5zM371 264q0 -90 39 -139t92 -49q84 0 126 80t42 295q0 135 -29 235q-270 -147 -270 -422z" />
<glyph unicode="q" horiz-adv-x="1034" d="M-4 463q0 238 111.5 350.5t295.5 112.5q141 0 201 -60q27 59 94 60q57 0 78 -29v-1550q0 -61 -30.5 -93t-75.5 -32q-57 0 -78 28v885q-86 -141 -238 -141q-358 0 -358 469zM190 463q0 -162 29 -252t66 -113.5t94 -23.5q78 0 145.5 90t67.5 287v122q0 145 -49 209t-121 64 q-57 0 -94 -12.5t-71 -50.5t-50.5 -116.5t-16.5 -203.5z" />
<glyph unicode="r" horiz-adv-x="796" d="M2 119v778q20 29 78 29q45 0 75.5 -32t30.5 -93v-156q102 254 283 254q129 0 188.5 -68.5t59.5 -162.5q0 -51 -31 -82t-68 -31l-61 25q12 31 12 75q0 70 -38.5 117t-94.5 47q-96 0 -173 -175t-77 -296v-325q-20 -29 -77 -29q-45 0 -76 31.5t-31 93.5z" />
<glyph unicode="s" horiz-adv-x="876" d="M-74 369q0 57 22.5 90t59.5 33q23 0 37 -6.5t17 -12.5l4 -6q-12 -31 -13 -76q0 -137 80 -227t221 -90h3q214 0 216 153q0 66 -56 111t-138 73.5t-163 60.5t-137 92q-54 58 -54 143v6q2 98 87 155.5t255 57.5q160 0 253 -57.5t93 -133.5q0 -37 -28 -59.5t-60 -22.5l-62 25 q12 14 12 47q0 51 -63 86t-137 35q-82 0 -133.5 -29t-51.5 -84q0 -61 58.5 -104t141.5 -72t166 -61.5t141.5 -93t58.5 -148.5q0 -131 -114 -195.5t-298 -64.5q-186 0 -302 107.5t-116 267.5z" />
<glyph unicode="t" horiz-adv-x="647" d="M0 352v752q0 61 30.5 93t75.5 32q57 0 78 -29v-303h281q43 0 56.5 -16.5t13.5 -55.5h-351v-516q0 -113 64.5 -174t148.5 -61q127 0 186.5 94t59.5 305q4 12 31 12q37 0 37 -108q0 -166 -83 -274.5t-255 -108.5t-272.5 90t-100.5 268z" />
<glyph unicode="u" horiz-adv-x="1079" d="M2 291v510q0 61 30.5 93t76.5 32q57 0 77 -29v-588q0 -243 122 -243h1q92 0 167 110.5t75 310.5v314q0 61 35 93t82 32q16 0 29.5 -3t22.5 -7.5t15 -8.5t9 -7l4 -3v-588q0 -117 36.5 -176t100.5 -59q31 0 60.5 16t61 56t51 124t19.5 203q2 12 31 12q37 0 37 -108 q0 -174 -75 -278.5t-210 -104.5q-215 0 -282 194q-80 -194 -291 -194h-2q-127 0 -205 76.5t-78 220.5z" />
<glyph unicode="v" horiz-adv-x="1034" d="M-20 473v328q0 61 30.5 93t75.5 32q57 0 78 -29v-434q0 -397 235 -397q51 0 90 30q-86 82 -129 205t-43 238q0 203 58.5 306t197.5 103q96 0 154.5 -65.5t58.5 -173.5q0 -391 -170 -594q70 -41 156 -41q115 0 188.5 98t73.5 301q2 12 31 12q37 0 37 -96 q0 -170 -86 -282.5t-262 -112.5q-119 0 -205 57q-82 -57 -174 -57q-176 0 -285.5 127t-109.5 352zM422 565q0 -256 125 -395q78 145 78 485q0 183 -82 183q-121 0 -121 -273z" />
<glyph unicode="w" horiz-adv-x="1579" d="M-41 473v328q0 61 30.5 93t76.5 32q57 0 77 -29v-434q0 -397 174 -397q39 0 72 18t68 66.5t52 150.5q13 75 13 176q0 35 -2 74q-2 70 -2 221q0 49 3 75.5t23.5 53.5t59.5 27q115 0 115 -164q0 -92 -12 -180v-121q0 -397 235 -397q51 0 90 30q-86 82 -129 205t-43 238 q0 203 58.5 306t197.5 103q96 0 154.5 -65.5t58.5 -173.5q0 -391 -170 -594q70 -41 156 -41q115 0 188.5 98t73.5 301q2 12 31 12q37 0 37 -96q0 -170 -86 -282.5t-263 -112.5q-119 0 -204 57q-82 -57 -174 -57q-233 0 -340 194q-118 -194 -283 -194h-2q-154 0 -244 126 t-90 353zM1090 170q77 143 77 476v9q0 183 -82 183q-120 0 -120 -269q0 -260 125 -399z" />
<glyph unicode="x" horiz-adv-x="1054" d="M-14 768q0 74 40 116t111 42q106 0 181 -62.5t153 -206.5l37 -71q41 78 75.5 129t86 104t117 80t143.5 27q41 0 41 -33q0 -43 -47 -43q-113 0 -199 -95t-168 -261l100 -185q70 -133 119 -194.5t105 -61.5q74 0 125 96.5t51 323.5q2 12 30 12q37 0 37 -108 q0 -182 -71.5 -293t-196.5 -111q-143 0 -232 81t-184 257q-76 -152 -160.5 -236.5t-199.5 -84.5q-23 0 -35 12t-12 25q0 16 13 28.5t32 12.5q53 0 97 25.5t83 81.5t64.5 104.5t64.5 132.5l-145 276q-45 86 -73 121t-56 35q-63 0 -64 -82l8 -49q-8 -12 -30 -13q-41 0 -41 68z " />
<glyph unicode="y" horiz-adv-x="997" d="M0 319v482q0 61 30.5 93t75.5 32q57 0 78 -29v-588q0 -243 122 -243h1q111 0 181.5 116.5t70.5 392.5v226q0 61 31 93t76 32q57 0 77 -29v-1040q25 2 76 2q55 0 55 -45l-12 -31q-78 0 -119 -2v-103q0 -211 -95 -332.5t-255 -121.5q-94 0 -166.5 56t-72.5 177 q0 156 110.5 248t294.5 129v320q-86 -160 -276 -160q-131 0 -207 84t-76 241zM258 -549q0 -72 39 -109.5t92 -37.5q57 0 92 31.5t56.5 134t21.5 286.5q-301 -68 -301 -305z" />
<glyph unicode="z" horiz-adv-x="933" d="M-16 770q0 70 32.5 101.5t122.5 31.5h649q39 -4 39 -45q0 -197 -113.5 -374t-269.5 -275q102 -37 186.5 -116t127.5 -187q47 2 147 2q37 0 51.5 -17.5t14.5 -37.5l-13 -31q-59 0 -174 -4q14 -68 15 -125q0 -211 -114 -341t-308 -130q-121 0 -216 65.5t-95 208.5 q0 324 528 393q-51 223 -258 267q-53 -18 -100 -19q-29 10 -29 45q0 53 90 54q115 0 217 188t102 393h-477q-43 0 -58 -21.5t-15 -72.5q0 -23 6 -117t6 -168q0 -35 -37 -35q-14 0 -21.5 9.5t-8.5 17.5l-1 8q0 78 -13 188.5t-13 143.5zM170 -510q0 -90 58.5 -139t144.5 -49 q102 0 171.5 92t69.5 303q0 53 -6 102q-438 -70 -438 -309z" />
<glyph unicode="{" horiz-adv-x="731" d="M-33 567q0 49 9.5 72t41.5 23q47 0 67.5 12t23 26.5t2.5 57.5q0 330 46 533.5t124.5 284.5t195.5 83h80q35 0 54.5 -17.5t19.5 -44.5q0 -14 -4 -25t-9.5 -15.5t-5.5 -2.5h-82q-94 0 -143 -67.5t-70.5 -238.5t-21.5 -500v-22v-26q0 -8 -1 -26.5t-4 -26.5t-7 -23.5 t-11.5 -22.5t-16.5 -16.5t-22.5 -13.5t-29.5 -4q16 -2 29.5 -7t22.5 -15t16.5 -20.5t11.5 -27t7 -26.5t4 -30.5t1 -27.5v-27v-21q0 -414 21.5 -628t70.5 -300t143 -84l82 2q18 -12 19 -45q0 -27 -19.5 -44.5t-54.5 -17.5h-80q-117 2 -194.5 99.5t-124.5 347.5t-47 659v17 q0 41 -3.5 58t-25 29.5t-66.5 12.5q-31 0 -40 20.5t-9 75.5z" />
<glyph unicode="|" horiz-adv-x="286" d="M59 -653v2291q6 29 64 29q92 0 92 -125v-2292q-6 -29 -63 -28q-92 0 -93 125z" />
<glyph unicode="}" horiz-adv-x="761" d="M-33 -690q0 14 4 25.5t10 15.5l5 4l82 -2q94 -2 143 84t70.5 300t21.5 628v21v27q0 7 1 27.5t4 30.5t7 26.5t11.5 27t16.5 20.5t22.5 15t29.5 7q-16 0 -29.5 4t-22.5 13.5t-16.5 16.5t-11.5 22.5t-7 23.5t-4 26.5t-1 26.5v26v22q0 330 -21.5 500.5t-70.5 238t-143 67.5 h-82q0 -2 -5.5 2.5t-9.5 15.5t-4 25q0 27 19.5 44.5t54.5 17.5h80q117 -2 195.5 -83t124.5 -284.5t46 -533.5q0 -33 1 -44.5t9.5 -27.5t28 -20t54.5 -4q33 0 42 -23t9 -72q0 -55 -9.5 -75.5t-39.5 -20.5q-45 0 -66.5 -12.5t-25 -28.5t-3.5 -59v-17q0 -410 -47 -659.5 t-124.5 -347t-194.5 -99.5h-80q-35 0 -54.5 17.5t-19.5 44.5z" />
<glyph unicode="~" horiz-adv-x="1071" d="M20 414q0 84 78 142t199 58q94 0 178 -41t154.5 -80.5t132.5 -39.5q80 0 127 49t47 112q43 0 69.5 -25.5t26.5 -66.5q0 -98 -75.5 -151.5t-200.5 -53.5q-104 0 -250 81t-215 81q-90 0 -132 -48t-42 -118q-96 0 -97 101z" />
<glyph unicode="&#xa1;" horiz-adv-x="419" d="M88 811q0 51 35 86t86 35t87 -35t36 -86t-36 -87t-87 -36t-86 36t-35 87zM119 -440l41 938q12 18 45 18q27 0 44 -19.5t17 -54.5l39 -964q-23 -39 -86 -39q-37 0 -69.5 32.5t-30.5 88.5z" />
<glyph unicode="&#xa2;" horiz-adv-x="829" d="M0 442q0 205 85 326t243 150v153q0 74 61 74q14 0 24.5 -5t13.5 -11l3 -5l2 -198q127 -2 195.5 -73t68.5 -159q0 -51 -30.5 -81.5t-67.5 -30.5l-61 24q12 31 12 76q0 53 -33 97t-78 61v-766q78 4 131.5 62.5t53.5 168.5q2 12 30 12q43 0 43 -65q0 -78 -62.5 -166 t-193.5 -92v-121q0 -115 -61 -115l-43 29v213q-158 25 -247 138.5t-89 303.5zM195 432q0 -264 135 -338v744q-82 -20 -108.5 -110.5t-26.5 -295.5z" />
<glyph unicode="&#xa3;" horiz-adv-x="1507" d="M-23 170q0 100 63.5 163.5t172.5 63.5q80 0 154 -37q4 86 4 144v143h-129q-74 0 -74 60q0 14 4 25t9 16l5 4h185v368q0 276 80.5 402.5t244.5 126.5q100 0 158.5 -59.5t58.5 -151.5l-94 6q0 49 -35.5 84t-87.5 35q-141 0 -141 -340v-469h182q35 0 54.5 -17.5t19.5 -44.5 q0 -14 -4 -25.5t-9 -15.5l-5 -4h-238v-151q0 -139 -31 -250q8 -8 36 -32t38 -33t37 -31.5t40 -31.5t39.5 -26.5t45 -26t46.5 -19.5t52.5 -16t55 -9.5t61.5 -4.5q203 0 306 95.5t103 275.5q2 12 31 12q10 0 20.5 -7t20.5 -32.5t10 -66.5q0 -170 -145 -281.5t-348 -111.5 q-154 0 -268.5 61.5t-225.5 167.5q-92 -176 -266 -176q-115 0 -175.5 60.5t-60.5 156.5zM70 174q0 -135 143 -135q115 0 143 207q-82 68 -145 67q-68 0 -104.5 -36.5t-36.5 -102.5z" />
<glyph unicode="&#xa5;" horiz-adv-x="1372" d="M141 496q0 59 74 59h338v94l-78 135l-315 2q-18 12 -19 45q0 59 74 60h199l-238 414q-33 57 1 93t97 36l353 -623l362 623q59 0 91 -36t-1 -93l-239 -414h241q18 -12 19 -45q0 -27 -19.5 -44.5t-54.5 -17.5l-248 2l-80 -141v-90h394q18 -12 18 -45q0 -27 -19.5 -44 t-54.5 -17l-338 2l2 -390q0 -39 -21.5 -62.5t-60.5 -23.5l-65 19v455l-393 2q-18 12 -19 45z" />
<glyph unicode="&#xa8;" horiz-adv-x="804" d="M186 1200q0 41 28 69.5t69 28.5t69.5 -28.5t28.5 -69.5t-28.5 -68.5t-69.5 -27.5t-69 27.5t-28 68.5zM492 1200q0 41 27.5 69.5t68.5 28.5t69.5 -28.5t28.5 -69.5t-28.5 -68.5t-69.5 -27.5q-39 0 -67.5 27.5t-28.5 68.5z" />
<glyph unicode="&#xa9;" horiz-adv-x="1249" d="M39 739.5q0 239.5 175 409.5t414.5 170t415 -170t175.5 -409.5t-175.5 -409.5t-415 -170t-414.5 170t-175 409.5zM166 739.5q0 -192.5 135 -328t327.5 -135.5t328 135.5t135.5 328t-135.5 327.5t-328 135t-327.5 -135t-135 -327.5zM311 733q0 164 86 254t250 90 q106 0 171 -62.5t65 -142.5q0 -51 -31 -81.5t-68 -30.5l-61 24q12 31 12 76q0 66 -22.5 101.5t-83.5 35.5q-123 0 -123 -274q0 -256 133 -256q145 0 145 129q2 12 31 12q43 0 43 -65q0 -59 -55 -107.5t-164 -48.5q-152 0 -240 94t-88 252z" />
<glyph unicode="&#xab;" d="M197 446q2 39 69 97l488 411q8 -4 20 -11t33.5 -33.5t21.5 -57.5q0 -27 -63 -80l-387 -330l387 -321q66 -53 65 -82q0 -31 -19 -55.5t-39 -34.5l-19 -10l-488 403q-72 59 -69 104zM705 446q2 39 69 97l488 411q8 -4 20 -11t33.5 -33.5t21.5 -57.5q0 -27 -63 -80 l-387 -330l387 -321q66 -53 65 -82q0 -31 -19.5 -55.5t-38.5 -34.5l-19 -10l-488 403q-72 59 -69 104z" />
<glyph unicode="&#xad;" horiz-adv-x="901" d="M53 539q0 92 125 92l643 2q29 -6 29 -64q0 -92 -125 -92l-643 -2q-29 6 -29 64z" />
<glyph unicode="&#xae;" horiz-adv-x="1261" d="M39 739.5q0 239.5 175 409.5t414.5 170t415 -170t175.5 -409.5t-175.5 -409.5t-415 -170t-414.5 170t-175 409.5zM166 739.5q0 -192.5 135 -328t328 -135.5q180 0 315 123q-68 4 -106.5 36t-53 73t-27 82t-41 68.5t-79.5 27.5h-43q-4 -154 -42 -215t-134 -61 q-135 0 -135 139q0 37 17 55.5t38 18.5q10 0 19.5 -6.5t13.5 -11.5l4 -5q-8 -14 -8 -47q0 -57 45 -57q37 0 40 147q0 15 1 21v262q0 35 24.5 54t50.5 19q20 0 37 -2t23 -5l6 -3v-201h43q66 0 90.5 31t24.5 92q0 63 -32 89t-120 26q-86 0 -144.5 -32.5t-58.5 -96.5l6 -33 q-18 -10 -36.5 -10t-36 16.5t-17.5 40.5q0 94 90.5 144.5t196.5 50.5q289 0 289 -195q0 -66 -49 -112.5t-113 -50.5q63 -4 99 -45t45.5 -89.5t36 -88.5t75.5 -40l37 9q72 115 72 245q0 193 -135.5 328t-328 135t-327.5 -135t-135 -327.5z" />
<glyph unicode="&#xb4;" horiz-adv-x="444" d="M-8 1153l223 397q39 68 98 68q29 0 50.5 -19.5t29.5 -38.5l8 -20l-227 -399q-39 -66 -96 -66q-29 0 -50.5 19.5t-28.5 39.5z" />
<glyph unicode="&#xb8;" horiz-adv-x="456" d="M66 -391q0 18 8 33.5t15 21.5l7 6q6 0 23.5 -2t30.5 -2q106 0 106 72q0 31 -22.5 58.5t-49 47t-49 62.5t-22.5 100h77q0 -39 30 -66.5t66 -44t65.5 -55.5t29.5 -96q0 -94 -67.5 -151.5t-151.5 -57.5q-47 0 -71.5 22.5t-24.5 51.5z" />
<glyph unicode="&#xbb;" horiz-adv-x="1118" d="M184 39q0 29 66 82l387 321l-387 330q-63 53 -64 80q2 65 76 102l488 -411q70 -59 67 -105q0 -41 -67 -96l-488 -403q-8 4 -21.5 11t-35 32.5t-21.5 56.5zM692 39q0 29 66 82l387 321l-387 330q-63 53 -64 80q2 65 76 102l487 -411q68 -57 68 -97q2 -47 -68 -104 l-487 -403q-8 4 -21.5 11t-35 32.5t-21.5 56.5z" />
<glyph unicode="&#xbf;" d="M238 -213q0 94 27.5 170t72.5 126t99.5 94t108.5 85t99 88t72.5 115.5t27.5 152.5q0 35 18.5 54.5t45.5 19.5q14 0 27.5 -4t20.5 -9l7 -5v-92q0 -90 -24.5 -159t-62.5 -115t-85 -85l-94 -78q-47 -39 -85 -84t-62.5 -114.5t-24.5 -159.5q0 -162 92 -244t207 -82 q135 0 243.5 91.5t108.5 242.5q0 20 -3 39t-6 28l-3 9q12 25 61 25q37 0 68 -31t31 -82q0 -180 -136.5 -301t-361.5 -121q-209 0 -349 105.5t-140 320.5zM725 862q0 33 23.5 56.5t58.5 23.5q33 0 56.5 -22.5t23.5 -57.5t-23.5 -58.5t-56.5 -23.5t-57.5 23.5t-24.5 58.5z" />
<glyph unicode="&#xc1;" horiz-adv-x="1781" d="M-127 -20q0 127 58.5 224t154.5 152.5t205.5 83t224.5 27.5l299 844q20 59 43 88l-59 198q-14 47 20.5 80t73.5 33l84 -29l362 -1214l269 2q35 0 54 -17.5t19 -43.5q0 -14 -5 -25.5t-9 -15.5l-4 -5h-291l117 -389q14 -47 -19.5 -86t-70.5 -39l-84 29l-146 485h-522 l-102 -278q-53 -141 -153.5 -243.5t-260.5 -102.5q-121 0 -189.5 63.5t-68.5 178.5zM-12 -27q0 -72 40 -110.5t103 -38.5q154 0 266 309l80 227q-225 0 -357 -106.5t-132 -280.5zM686 467h451l-201 774zM825 1858l224 397q39 68 98 67q29 0 50.5 -19t29.5 -39l8 -19 l-227 -400q-39 -66 -97 -65q-29 0 -50 19.5t-28 38.5z" />
<glyph unicode="&#xc9;" horiz-adv-x="1083" d="M-80 360q0 100 31 178t73 121t96 72t95 38t74 9q-14 2 -40 8.5t-71 30t-81 59t-63.5 105.5t-27.5 160q0 193 135 294t367 101q217 0 330.5 -91t113.5 -218q0 -51 -30.5 -82t-67.5 -31l-61 25q12 31 12 75q0 111 -84 166.5t-215 55.5q-139 0 -225 -75t-86 -220 q0 -305 411 -305q23 0 42.5 -13.5t19.5 -40.5q0 -53 -62 -53q-219 0 -358 -90t-139 -279q0 -186 119.5 -279t316.5 -93q223 0 381.5 151.5t158.5 395.5q4 14 35 14q39 0 39 -68q0 -109 -39 -213t-112.5 -190t-194.5 -139.5t-268 -53.5q-266 0 -445.5 125t-179.5 350z M459 1706l223 397q39 68 98 68q29 0 50.5 -19.5t29.5 -38.5l8 -20l-227 -399q-39 -66 -96 -66q-29 0 -50.5 19.5t-28.5 39.5z" />
<glyph unicode="&#xcd;" horiz-adv-x="929" d="M109 59q0 14 5 25.5t9 15.5l4 4l221 2v1221h-166q-74 0 -73 59q0 8 1 15.5t3 11.5t5 8t5 6.5t3 4.5l1 2h551q35 0 54.5 -17.5t19.5 -44.5q0 -14 -5.5 -25.5t-9.5 -15.5l-4 -4h-201v-1221h146q35 0 54.5 -17t19.5 -44q0 -14 -5.5 -25.5t-9.5 -15.5l-4 -4h-551 q-74 0 -73 59zM352 1690l223 397q39 68 99 67q29 0 50 -19t30 -39l8 -19l-227 -400q-39 -66 -97 -65q-29 0 -50 19.5t-29 38.5z" />
<glyph unicode="&#xd1;" horiz-adv-x="1929" d="M72 1108q0 162 98 263.5t262 101.5q270 0 322 -295q45 137 147.5 219t239.5 82q213 -2 319.5 -161t106.5 -425v-580q0 -119 48 -190.5t126 -71.5q193 0 192 385q2 12 31 13q10 0 20.5 -7.5t20.5 -33t10 -66.5q0 -172 -82 -278.5t-217 -106.5q-188 0 -263 126t-75 353v457 q0 483 -237 483q-92 0 -161 -46t-107.5 -113.5t-62.5 -161.5t-31 -175t-7 -171v-263q0 -254 -81 -402t-255 -148q-152 0 -233.5 74.5t-81.5 197.5q0 158 102 158q25 0 43.5 -11.5t24.5 -23.5l6 -12q-16 -43 -16 -115q0 -98 44 -141t111 -43q145 0 146 344v792 q0 119 -48.5 190.5t-125.5 71.5q-88 0 -138.5 -66.5t-50.5 -236.5q0 -18 4 -36.5t8 -27.5l5 -10q-17 -24 -68 -24h-4q-33 0 -62.5 30.5t-29.5 100.5zM612 1698q0 80 57.5 130t137.5 50q78 0 177 -60.5t144 -60.5q53 0 83 33t30 92q31 0 53.5 -25.5t22.5 -62.5 q0 -72 -57.5 -115.5t-137.5 -43.5q-66 0 -169 60t-152 60q-113 0 -113 -145q-31 0 -53.5 23.5t-22.5 64.5z" />
<glyph unicode="&#xd3;" horiz-adv-x="1665" d="M59 1024q0 61 27 130t86 138.5t139 126t199 91t256 34.5q330 0 527.5 -236.5t197.5 -586.5q0 -375 -181.5 -597t-490.5 -222q-299 0 -474 211t-175 569q0 168 54.5 301t140.5 209t177 115t177 39q37 0 59.5 -21.5t22.5 -44.5l-13 -31q-205 0 -317.5 -153.5t-112.5 -413.5 q0 -307 123 -502.5t338 -195.5q223 0 353.5 206.5t130.5 532.5q0 303 -153 511t-388 208q-256 0 -429 -140.5t-181 -334.5l-1 -2q-1 -2 -4.5 -5.5t-7.5 -5.5t-11 -3t-15 -1q-53 4 -54 74zM621 1708l223 397q39 68 98 68q29 0 50.5 -19.5t29.5 -38.5l8 -20l-227 -399 q-39 -66 -96 -66q-29 0 -50.5 19.5t-28.5 39.5z" />
<glyph unicode="&#xda;" horiz-adv-x="1542" d="M-303 1139q0 162 98.5 263t261.5 101q98 0 165 -34.5t102.5 -102.5t50 -149.5t14.5 -192.5v-518q0 -483 238 -483q170 0 269 161.5t99 413.5v739q0 61 31 93t70 32q25 0 47 -7t33 -14l10 -7v-1112q0 -119 48 -191t126 -72q193 0 192 385q2 12 31 13q10 0 20.5 -7.5 t20.5 -33t10 -66.5q0 -172 -82 -278.5t-217 -106.5q-260 0 -317 271q-43 -143 -146.5 -229.5t-244.5 -86.5q-211 2 -315.5 157.5t-104.5 420.5v649q0 119 -48 190.5t-126 71.5q-88 0 -138.5 -66.5t-50.5 -236.5q0 -18 4.5 -36.5t8.5 -28.5l4 -9q-18 -25 -72 -24 q-33 0 -62.5 30.5t-29.5 100.5zM565 1690l223 397q39 68 99 67q29 0 50 -19t30 -39l8 -19l-227 -400q-39 -66 -97 -65q-29 0 -50 19.5t-29 38.5z" />
<glyph unicode="&#xdc;" horiz-adv-x="1542" d="M-303 1139q0 162 98.5 263t261.5 101q98 0 165 -34.5t102.5 -102.5t50 -149.5t14.5 -192.5v-518q0 -483 238 -483q170 0 269 161.5t99 413.5v739q0 61 31 93t70 32q25 0 47 -7t33 -14l10 -7v-1112q0 -119 48 -191t126 -72q193 0 192 385q2 12 31 13q10 0 20.5 -7.5 t20.5 -33t10 -66.5q0 -172 -82 -278.5t-217 -106.5q-260 0 -317 271q-43 -143 -146.5 -229.5t-244.5 -86.5q-211 2 -315.5 157.5t-104.5 420.5v649q0 119 -48 190.5t-126 71.5q-88 0 -138.5 -66.5t-50.5 -236.5q0 -18 4.5 -36.5t8.5 -28.5l4 -9q-18 -25 -72 -24 q-33 0 -62.5 30.5t-29.5 100.5zM362 1737q0 41 28 69.5t69 28.5t69.5 -28.5t28.5 -69.5t-28.5 -69t-69.5 -28t-69 28t-28 69zM668 1737q0 41 27.5 69.5t68.5 28.5t69.5 -28.5t28.5 -69.5t-28.5 -69t-69.5 -28q-39 0 -67.5 28t-28.5 69z" />
<glyph unicode="&#xe1;" horiz-adv-x="1114" d="M0 463q0 238 111.5 350.5t296.5 112.5q141 0 200 -60q27 59 94 60q57 0 78 -29v-588q0 -117 37 -176t101 -59q192 0 192 399q2 12 31 12q37 0 37 -108q0 -174 -75 -278.5t-210 -104.5q-207 0 -275 182q-39 -84 -106.5 -133t-153.5 -49q-358 0 -358 469zM195 463 q0 -162 28.5 -252t65.5 -113.5t94 -23.5q66 0 138.5 76.5t72.5 199.5v281q0 96 -50 155.5t-118 59.5q-57 0 -94 -12.5t-71 -50.5t-50 -116.5t-16 -203.5zM334 1153l223 397q39 68 98 68q29 0 50.5 -19.5t29.5 -38.5l8 -20l-227 -399q-39 -66 -96 -66q-29 0 -50.5 19.5 t-28.5 39.5z" />
<glyph unicode="&#xe9;" horiz-adv-x="833" d="M2 442q0 231 114.5 357.5t293.5 126.5q129 0 188 -69t59 -163q0 -154 -128 -255t-326 -101q18 -131 95 -197.5t194 -66.5q135 0 236 95.5t101 279.5q2 12 31 12q43 0 43 -66q0 -152 -105.5 -276.5t-305.5 -124.5q-229 0 -359.5 115.5t-130.5 332.5zM197 414 q127 16 220 79.5t93 188.5q0 80 -35 122t-98 42q-96 0 -138 -94.5t-42 -319.5v-18zM311 1153l224 397q39 68 98 68q29 0 50.5 -19.5t29.5 -38.5l8 -20l-227 -399q-39 -66 -97 -66q-29 0 -50 19.5t-29 39.5z" />
<glyph unicode="&#xed;" horiz-adv-x="575" d="M6 371v430q0 61 31 93t76 32q57 0 77 -29v-588q0 -117 45.5 -176t123 -59t145 94t67.5 305q4 12 31 12q37 0 37 -108q0 -158 -86 -270.5t-219 -112.5q-166 0 -247 98t-81 279zM18 1153l224 397q39 68 98 68q29 0 50.5 -19.5t29.5 -38.5l8 -20l-227 -399q-39 -66 -97 -66 q-29 0 -50 19.5t-28 39.5z" />
<glyph unicode="&#xf1;" horiz-adv-x="1081" d="M0 119v778q20 29 78 29q106 0 106 -154q86 154 273 154q133 0 212 -84t79 -242v-291q0 -117 36.5 -176t100.5 -59q82 0 137 91t55 308q2 12 31 12q37 0 37 -108q0 -174 -75 -278.5t-210 -104.5q-152 0 -228.5 98t-76.5 279v239q0 244 -123 244q-109 0 -178.5 -110.5 t-69.5 -370.5v-350q-20 -29 -78 -29q-45 0 -75.5 31.5t-30.5 93.5zM55 1110q0 80 57.5 130t137.5 50q78 0 177 -60.5t144 -60.5q53 0 83 33t30 92q31 0 53.5 -25.5t22.5 -62.5q0 -72 -57.5 -115.5t-137.5 -43.5q-66 0 -169 60t-152 60q-113 0 -113 -145q-31 0 -53.5 23.5 t-22.5 64.5z" />
<glyph unicode="&#xf3;" horiz-adv-x="966" d="M10 463q0 219 111.5 341t296.5 122q178 0 292.5 -121t114.5 -342q0 -195 -107.5 -332t-289.5 -137q-178 0 -298 124t-120 345zM205 463q0 -209 52 -299t171 -90q82 0 126 42t60 136q-133 29 -244.5 121t-162.5 205q-2 -35 -2 -115zM281 739q0 -131 102 -250.5t244 -158.5 q4 78 4 133q0 213 -45 298t-170 85q-55 0 -95 -27.5t-40 -79.5zM311 1161l224 398q39 68 98 67q29 0 50.5 -19.5t29.5 -38.5l8 -20l-227 -399q-39 -66 -97 -66q-29 0 -50 19.5t-29 39.5z" />
<glyph unicode="&#xfa;" horiz-adv-x="1079" d="M2 291v510q0 61 30.5 93t76.5 32q57 0 77 -29v-588q0 -244 123 -243q92 0 167 110.5t75 310.5v314q0 61 35 93t82 32q16 0 29.5 -3t22.5 -7.5t15 -8.5t9 -7l4 -3v-588q0 -117 36.5 -176t100.5 -59q31 0 60.5 16t61 56t51 124t19.5 203q2 12 31 12q37 0 37 -108 q0 -174 -75 -278.5t-210 -104.5q-215 0 -282 194q-80 -195 -293 -194q-127 0 -205 76.5t-78 220.5zM268 1153l224 397q39 68 98 68q29 0 50.5 -19.5t29.5 -38.5l8 -20l-227 -399q-39 -66 -97 -66q-29 0 -50 19.5t-29 39.5z" />
<glyph unicode="&#xfc;" horiz-adv-x="1079" d="M2 291v510q0 61 30.5 93t76.5 32q57 0 77 -29v-588q0 -244 123 -243q92 0 167 110.5t75 310.5v314q0 61 35 93t82 32q16 0 29.5 -3t22.5 -7.5t15 -8.5t9 -7l4 -3v-588q0 -117 36.5 -176t100.5 -59q31 0 60.5 16t61 56t51 124t19.5 203q2 12 31 12q37 0 37 -108 q0 -174 -75 -278.5t-210 -104.5q-215 0 -282 194q-80 -195 -293 -194q-127 0 -205 76.5t-78 220.5zM139 1200q0 41 28 69.5t68.5 28.5t69.5 -28.5t29 -69.5t-29 -68.5t-69 -27.5q-39 0 -68 27.5t-29 68.5zM444 1200q0 41 28 69.5t69 28.5t69.5 -28.5t28.5 -69.5t-28.5 -68.5 t-69.5 -27.5t-69 27.5t-28 68.5z" />
<glyph unicode="&#x2c6;" horiz-adv-x="573" d="M-43 1128l233 336q47 68 99 68q53 0 100 -68l234 -336q-2 -8 -8.5 -21t-28 -34.5t-49.5 -21.5q-51 0 -97 65l-151 213l-150 -213q-45 -66 -96 -65q-29 0 -50.5 19.5t-28.5 38.5z" />
<glyph unicode="&#x2da;" horiz-adv-x="737" d="M158 1341.5q0 90.5 63.5 154t153.5 63.5q88 0 152.5 -64.5t64.5 -153.5q0 -90 -63.5 -153.5t-153.5 -63.5t-153.5 63.5t-63.5 154zM256 1341q0 -49 35 -83.5t84 -34.5q51 0 85 34.5t34 83.5q0 51 -34 85t-85 34q-49 0 -84 -34t-35 -85z" />
<glyph unicode="&#x2dc;" horiz-adv-x="804" d="M49 1110q0 80 57.5 130t137.5 50q78 0 177 -60.5t144 -60.5q53 0 83 33t30 92q31 0 53.5 -25.5t22.5 -62.5q0 -72 -57.5 -115.5t-137.5 -43.5q-66 0 -169 60t-152 60q-113 0 -113 -145q-31 0 -53.5 23.5t-22.5 64.5z" />
<glyph unicode="&#x2000;" horiz-adv-x="1161" />
<glyph unicode="&#x2001;" horiz-adv-x="2322" />
<glyph unicode="&#x2002;" horiz-adv-x="1161" />
<glyph unicode="&#x2003;" horiz-adv-x="2322" />
<glyph unicode="&#x2004;" horiz-adv-x="774" />
<glyph unicode="&#x2005;" horiz-adv-x="580" />
<glyph unicode="&#x2006;" horiz-adv-x="387" />
<glyph unicode="&#x2007;" horiz-adv-x="387" />
<glyph unicode="&#x2008;" horiz-adv-x="290" />
<glyph unicode="&#x2009;" horiz-adv-x="464" />
<glyph unicode="&#x200a;" horiz-adv-x="129" />
<glyph unicode="&#x2010;" horiz-adv-x="901" d="M53 539q0 92 125 92l643 2q29 -6 29 -64q0 -92 -125 -92l-643 -2q-29 6 -29 64z" />
<glyph unicode="&#x2011;" horiz-adv-x="901" d="M53 539q0 92 125 92l643 2q29 -6 29 -64q0 -92 -125 -92l-643 -2q-29 6 -29 64z" />
<glyph unicode="&#x2012;" horiz-adv-x="901" d="M53 539q0 92 125 92l643 2q29 -6 29 -64q0 -92 -125 -92l-643 -2q-29 6 -29 64z" />
<glyph unicode="&#x2013;" horiz-adv-x="1112" d="M94 530q0 94 125 95h787q29 -6 28 -64q0 -94 -125 -94h-786q-29 6 -29 63z" />
<glyph unicode="&#x2014;" horiz-adv-x="1296" d="M45 530q0 94 125 95h1012q29 -6 28 -64q0 -92 -125 -94h-1011q-29 6 -29 63z" />
<glyph unicode="&#x2018;" horiz-adv-x="364" d="M72 1577q0 94 45 156.5t108 62.5q27 0 46.5 -11t19.5 -28l-15 -33q-57 0 -89.5 -37.5t-32.5 -101.5q0 -39 4 -53q31 37 80 37q41 0 68.5 -29t27.5 -67q0 -41 -30 -70t-75 -29q-72 2 -114.5 53.5t-42.5 149.5z" />
<glyph unicode="&#x2019;" horiz-adv-x="405" d="M72 1698q0 41 28.5 69.5t69.5 28.5q74 0 119 -51t45 -152q0 -94 -45 -156.5t-109 -62.5q-27 0 -46 11.5t-19 27.5l14 33q57 0 90 38t33 101q0 29 -6 53q-27 -37 -78 -36q-41 0 -68.5 28.5t-27.5 67.5z" />
<glyph unicode="&#x201a;" horiz-adv-x="370" d="M72 92q0 41 28.5 69.5t69.5 28.5q74 0 119 -51t45 -151q0 -94 -45 -156.5t-109 -62.5q-27 0 -46 11t-19 27l14 33q57 0 90 38t33 102q0 29 -6 53q-27 -37 -78 -37q-41 0 -68.5 28.5t-27.5 67.5z" />
<glyph unicode="&#x201c;" horiz-adv-x="909" d="M72 1577q0 94 45 156.5t108 62.5q27 0 46.5 -11t19.5 -28l-15 -33q-57 0 -89.5 -37.5t-32.5 -101.5q0 -39 4 -53q31 37 80 37q41 0 68.5 -29t27.5 -67q0 -41 -29 -70t-69 -29q-74 0 -119 51.5t-45 151.5zM399 1577q0 94 45 156.5t109 62.5q27 0 46 -11t19 -28l-14 -33 q-57 0 -90 -37.5t-33 -101.5q0 -39 4 -53q31 37 80 37q41 0 69 -29t28 -67q0 -41 -29 -70t-70 -29q-74 0 -119 51.5t-45 151.5z" />
<glyph unicode="&#x201d;" horiz-adv-x="690" d="M72 1698q0 41 28.5 69.5t69.5 28.5q74 0 119 -51t45 -152q0 -94 -45 -156.5t-109 -62.5q-27 0 -46 11.5t-19 27.5l14 33q57 0 90 38t33 101q0 29 -6 53q-27 -37 -78 -36q-41 0 -68.5 28.5t-27.5 67.5zM399 1698q0 41 30 69.5t75 28.5q70 -4 114 -55t44 -148 q0 -94 -45.5 -156.5t-108.5 -62.5q-27 0 -46.5 11.5t-19.5 27.5l15 33q57 0 90 38t33 101q0 29 -7 53q-27 -37 -77 -36q-41 0 -69 28.5t-28 67.5z" />
<glyph unicode="&#x201e;" horiz-adv-x="743" d="M72 92q0 41 29.5 69.5t74.5 28.5q70 -4 114 -55t44 -147q0 -94 -45 -156.5t-109 -62.5q-27 0 -46 11t-19 27l14 33q57 0 90 38t33 102q0 29 -6 53q-27 -37 -78 -37q-41 0 -68.5 28.5t-27.5 67.5zM426 92q0 41 29.5 69.5t74.5 28.5q70 -4 114 -55t44 -147 q0 -94 -45 -156.5t-108 -62.5q-27 0 -46.5 11t-19.5 27l14 33q57 0 90 38t33 102q0 29 -6 53q-27 -37 -78 -37q-39 0 -67.5 28.5t-28.5 67.5z" />
<glyph unicode="&#x2026;" horiz-adv-x="837" d="M27 92q0 41 27.5 69.5t68.5 28.5t69.5 -28.5t28.5 -69.5t-28.5 -68.5t-69.5 -27.5t-68.5 28.5t-27.5 67.5zM315 92q0 41 28 69.5t69 28.5t69.5 -28.5t28.5 -69.5t-28.5 -68.5t-69.5 -27.5q-39 0 -68 28.5t-29 67.5zM598 92q0 41 27.5 69.5t68.5 28.5t70 -28.5t29 -69.5 t-29 -68.5t-70 -27.5q-39 0 -67.5 28.5t-28.5 67.5z" />
<glyph unicode="&#x202f;" horiz-adv-x="464" />
<glyph unicode="&#x2039;" d="M197 446q2 39 69 97l488 411q8 -4 20 -11t33.5 -33.5t21.5 -57.5q0 -27 -63 -80l-387 -330l387 -321q66 -53 65 -82q0 -31 -19 -55.5t-39 -34.5l-19 -10l-488 403q-72 59 -69 104z" />
<glyph unicode="&#x203a;" horiz-adv-x="886" d="M184 39q0 29 66 82l387 321l-387 330q-63 53 -64 80q2 65 76 102l488 -411q70 -59 67 -105q0 -41 -67 -96l-488 -403q-8 4 -21.5 11t-35 32.5t-21.5 56.5z" />
<glyph unicode="&#x205f;" horiz-adv-x="580" />
<glyph unicode="&#x20ac;" d="M-168 879q0 57 74 57h114q55 227 217 365.5t390 138.5q88 0 169 -22.5t133 -54.5t92 -63.5t57 -54.5l18 -22q12 -12 13 -33t-15 -37q-47 -39 -82 0q-6 8 -18.5 20.5t-52.5 44t-82 56t-106.5 44t-129.5 19.5q-152 0 -262.5 -109.5t-153.5 -293.5h381q18 -12 18 -45 q0 -59 -74 -60h-342q-6 -51 -6 -106q0 -121 17 -211h387q18 -12 18 -45q0 -59 -74 -59h-307q47 -166 149.5 -259.5t252.5 -93.5q100 0 191 41t131 82l40 41q12 12 32.5 16.5t41.5 -12.5q35 -35 0 -69q-6 -8 -16.5 -19.5t-49.5 -43.5t-85 -55.5t-122.5 -43t-162.5 -19.5 q-211 0 -364.5 116t-221.5 321h-174q-18 14 -19 47q0 57 74 57h92q-18 98 -18 207q0 57 6 113h-152q-18 12 -18 45z" />
<glyph unicode="&#x2122;" horiz-adv-x="2080" d="M-78 1282q0 125 139 125q66 0 249.5 -62.5t330.5 -62.5q96 0 121.5 19.5t25.5 62.5q0 35 -24.5 61.5t-24.5 34.5q0 29 29 29q35 0 66.5 -41t31.5 -84q0 -37 -12 -68q98 -6 137 -92q57 94 176 94q131 0 195 -118q61 119 186 118q129 0 179.5 -72.5t50.5 -207.5v-256 q0 -109 84 -109q45 0 69.5 31t24.5 115q0 6 14 6q45 0 45 -51q0 -86 -42 -135.5t-124 -49.5q-96 0 -148 53.5t-52 149.5v246q0 98 -23.5 144t-77.5 46q-80 0 -114.5 -65.5t-34.5 -200.5v-285q0 -43 -22.5 -63.5t-47.5 -20.5q-12 0 -27.5 4.5t-23.5 7.5l-8 3v430 q0 190 -103 190q-90 0 -118.5 -68.5t-28.5 -226.5v-163q0 -211 -191 -211q-76 0 -119.5 44t-43.5 124q0 41 22.5 58t46.5 17q12 0 21.5 -6t12.5 -11l3 -5q-8 -23 -8 -55q0 -86 65 -87q31 0 44.5 27t13.5 98v381q0 84 -58 84q-76 0 -75 -104l8 -35q-8 -10 -35 -10 q-10 0 -23.5 4t-26.5 19.5t-13 38t4 50.5h-27q-86 0 -168 15v-428q0 -111 -55.5 -168.5t-147.5 -57.5q-76 0 -123 45.5t-47 124.5q0 43 22.5 60.5t47.5 17.5q10 0 18.5 -5t11.5 -11l3 -6q-6 -23 -6 -58q0 -88 73 -88q72 0 72 127v484q-33 10 -90 34q-59 -100 -189 -100 q-63 0 -102 36t-39 89zM-2 1282q-1 -57 65 -57q88 0 127 59q-84 39 -133 39q-59 0 -59 -41z" />
<glyph unicode="&#xe000;" horiz-adv-x="925" d="M0 925h925v-925h-925v925z" />
</font>
</defs></svg> 